%!PS-Adobe-3.0 EPSF-3.0
%%Creator: MATLAB, The MathWorks, Inc. Version 8.2.0.701 (R2013b). Operating System: Microsoft Windows 8.
%%Title: C:\Users\Ayush\Desktop\gecco\Addrows1.eps
%%CreationDate: 04/10/2015  23:11:28
%%DocumentNeededFonts: Helvetica
%%DocumentProcessColors: Cyan Magenta Yellow Black
%%LanguageLevel: 2
%%Pages: 1
%%BoundingBox:  -422    74  1019   766
%%EndComments

%%BeginProlog
% MathWorks dictionary
/MathWorks 160 dict begin
% definition operators
/bdef {bind def} bind def
/ldef {load def} bind def
/xdef {exch def} bdef
/xstore {exch store} bdef
% operator abbreviations
/c  /clip ldef
/cc /concat ldef
/cp /closepath ldef
/gr /grestore ldef
/gs /gsave ldef
/mt /moveto ldef
/np /newpath ldef
/cm /currentmatrix ldef
/sm /setmatrix ldef
/rm /rmoveto ldef
/rl /rlineto ldef
/s {show newpath} bdef
/sc {setcmykcolor} bdef
/sr /setrgbcolor ldef
/sg /setgray ldef
/w /setlinewidth ldef
/j /setlinejoin ldef
/cap /setlinecap ldef
/rc {rectclip} bdef
/rf {rectfill} bdef
% page state control
/pgsv () def
/bpage {/pgsv save def} bdef
/epage {pgsv restore} bdef
/bplot /gsave ldef
/eplot {stroke grestore} bdef
% orientation switch
/portraitMode 0 def /landscapeMode 1 def /rotateMode 2 def
% coordinate system mappings
/dpi2point 0 def
% font control
/FontSize 0 def
/FMS {/FontSize xstore findfont [FontSize 0 0 FontSize neg 0 0]
  makefont setfont} bdef
/ISOLatin1Encoding where {pop /WindowsLatin1Encoding 256 array bdef
ISOLatin1Encoding WindowsLatin1Encoding copy pop
/.notdef/.notdef/quotesinglbase/florin/quotedblbase/ellipsis/dagger
/daggerdbl/circumflex/perthousand/Scaron/guilsinglleft/OE/.notdef/.notdef
/.notdef/.notdef/quoteleft/quoteright/quotedblleft/quotedblright/bullet
/endash/emdash/tilde/trademark/scaron/guilsinglright/oe/.notdef/.notdef
/Ydieresis WindowsLatin1Encoding 128 32 getinterval astore pop}
{/WindowsLatin1Encoding StandardEncoding bdef} ifelse
/reencode {exch dup where {pop load} {pop StandardEncoding} ifelse
  exch dup 3 1 roll findfont dup length dict begin
  { 1 index /FID ne {def}{pop pop} ifelse } forall
  /Encoding exch def currentdict end definefont pop} bdef
/isroman {findfont /CharStrings get /Agrave known} bdef
/FMSR {3 1 roll 1 index dup isroman {reencode} {pop pop} ifelse
  exch FMS} bdef
/csm {1 dpi2point div -1 dpi2point div scale neg translate
 dup landscapeMode eq {pop -90 rotate}
  {rotateMode eq {90 rotate} if} ifelse} bdef
% line types: solid, dotted, dashed, dotdash
/SO { [] 0 setdash } bdef
/DO { [.5 dpi2point mul 4 dpi2point mul] 0 setdash } bdef
/DA { [6 dpi2point mul] 0 setdash } bdef
/DD { [.5 dpi2point mul 4 dpi2point mul 6 dpi2point mul 4
  dpi2point mul] 0 setdash } bdef
% macros for lines and objects
/L {lineto stroke} bdef
/MP {3 1 roll moveto 1 sub {rlineto} repeat} bdef
/AP {{rlineto} repeat} bdef
/PDlw -1 def
/W {/PDlw currentlinewidth def setlinewidth} def
/PP {closepath eofill} bdef
/DP {closepath stroke} bdef
/MR {4 -2 roll moveto dup  0 exch rlineto exch 0 rlineto
  neg 0 exch rlineto closepath} bdef
/FR {MR stroke} bdef
/PR {MR fill} bdef
/L1i {{currentfile picstr readhexstring pop} image} bdef
/tMatrix matrix def
/MakeOval {newpath tMatrix currentmatrix pop translate scale
0 0 1 0 360 arc tMatrix setmatrix} bdef
/FO {MakeOval stroke} bdef
/PO {MakeOval fill} bdef
/PD {currentlinewidth 2 div 0 360 arc fill
   PDlw -1 eq not {PDlw w /PDlw -1 def} if} def
/FA {newpath tMatrix currentmatrix pop translate scale
  0 0 1 5 -2 roll arc tMatrix setmatrix stroke} bdef
/PA {newpath tMatrix currentmatrix pop	translate 0 0 moveto scale
  0 0 1 5 -2 roll arc closepath tMatrix setmatrix fill} bdef
/FAn {newpath tMatrix currentmatrix pop translate scale
  0 0 1 5 -2 roll arcn tMatrix setmatrix stroke} bdef
/PAn {newpath tMatrix currentmatrix pop translate 0 0 moveto scale
  0 0 1 5 -2 roll arcn closepath tMatrix setmatrix fill} bdef
/vradius 0 def /hradius 0 def /lry 0 def
/lrx 0 def /uly 0 def /ulx 0 def /rad 0 def
/MRR {/vradius xdef /hradius xdef /lry xdef /lrx xdef /uly xdef
  /ulx xdef newpath tMatrix currentmatrix pop ulx hradius add uly
  vradius add translate hradius vradius scale 0 0 1 180 270 arc 
  tMatrix setmatrix lrx hradius sub uly vradius add translate
  hradius vradius scale 0 0 1 270 360 arc tMatrix setmatrix
  lrx hradius sub lry vradius sub translate hradius vradius scale
  0 0 1 0 90 arc tMatrix setmatrix ulx hradius add lry vradius sub
  translate hradius vradius scale 0 0 1 90 180 arc tMatrix setmatrix
  closepath} bdef
/FRR {MRR stroke } bdef
/PRR {MRR fill } bdef
/MlrRR {/lry xdef /lrx xdef /uly xdef /ulx xdef /rad lry uly sub 2 div def
  newpath tMatrix currentmatrix pop ulx rad add uly rad add translate
  rad rad scale 0 0 1 90 270 arc tMatrix setmatrix lrx rad sub lry rad
  sub translate rad rad scale 0 0 1 270 90 arc tMatrix setmatrix
  closepath} bdef
/FlrRR {MlrRR stroke } bdef
/PlrRR {MlrRR fill } bdef
/MtbRR {/lry xdef /lrx xdef /uly xdef /ulx xdef /rad lrx ulx sub 2 div def
  newpath tMatrix currentmatrix pop ulx rad add uly rad add translate
  rad rad scale 0 0 1 180 360 arc tMatrix setmatrix lrx rad sub lry rad
  sub translate rad rad scale 0 0 1 0 180 arc tMatrix setmatrix
  closepath} bdef
/FtbRR {MtbRR stroke } bdef
/PtbRR {MtbRR fill } bdef
/stri 6 array def /dtri 6 array def
/smat 6 array def /dmat 6 array def
/tmat1 6 array def /tmat2 6 array def /dif 3 array def
/asub {/ind2 exch def /ind1 exch def dup dup
  ind1 get exch ind2 get sub exch } bdef
/tri_to_matrix {
  2 0 asub 3 1 asub 4 0 asub 5 1 asub
  dup 0 get exch 1 get 7 -1 roll astore } bdef
/compute_transform {
  dmat dtri tri_to_matrix tmat1 invertmatrix 
  smat stri tri_to_matrix tmat2 concatmatrix } bdef
/ds {stri astore pop} bdef
/dt {dtri astore pop} bdef
/db {2 copy /cols xdef /rows xdef mul dup 3 mul string
  currentfile 
  3 index 0 eq {/ASCIIHexDecode filter}
  {/ASCII85Decode filter 3 index 2 eq {/RunLengthDecode filter} if }
  ifelse exch readstring pop
  dup 0 3 index getinterval /rbmap xdef
  dup 2 index dup getinterval /gbmap xdef
  1 index dup 2 mul exch getinterval /bbmap xdef pop pop}bdef
/it {gs np dtri aload pop moveto lineto lineto cp c
  cols rows 8 compute_transform 
  rbmap gbmap bbmap true 3 colorimage gr}bdef
/il {newpath moveto lineto stroke}bdef
currentdict end def
%%EndProlog

%%BeginSetup
MathWorks begin

0 cap

end
%%EndSetup

%%Page: 1 1
%%BeginPageSetup
%%PageBoundingBox:  -422    74  1019   766
MathWorks begin
bpage
%%EndPageSetup

%%BeginObject: obj1
bplot

/dpi2point 12 def
portraitMode -5064 9192 csm

    0     0 17294  8293 rc
89 dict begin %Colortable dictionary
/c0 { 0.000000 0.000000 0.000000 sr} bdef
/c1 { 1.000000 1.000000 1.000000 sr} bdef
/c2 { 0.900000 0.000000 0.000000 sr} bdef
/c3 { 0.000000 0.820000 0.000000 sr} bdef
/c4 { 0.000000 0.000000 0.800000 sr} bdef
/c5 { 0.910000 0.820000 0.320000 sr} bdef
/c6 { 1.000000 0.260000 0.820000 sr} bdef
/c7 { 0.000000 0.820000 0.820000 sr} bdef
c0
1 j
1 sg
   0    0 17295 8294 rf
6 w
0 3110 5880 0 0 -3110 7955 3607 4 MP
PP
-5880 0 0 3110 5880 0 0 -3110 7955 3607 5 MP stroke
4 w
DO
0 sg
7955 3607 mt 7955  497 L
7955  497 mt 7955  497 L
8608 3607 mt 8608  497 L
8608  497 mt 8608  497 L
9261 3607 mt 9261  497 L
9261  497 mt 9261  497 L
9915 3607 mt 9915  497 L
9915  497 mt 9915  497 L
10568 3607 mt 10568  497 L
10568  497 mt 10568  497 L
11221 3607 mt 11221  497 L
11221  497 mt 11221  497 L
11875 3607 mt 11875  497 L
11875  497 mt 11875  497 L
12528 3607 mt 12528  497 L
12528  497 mt 12528  497 L
13181 3607 mt 13181  497 L
13181  497 mt 13181  497 L
13835 3607 mt 13835  497 L
13835  497 mt 13835  497 L
7955 3607 mt 13835 3607 L
13835 3607 mt 13835 3607 L
7955 2985 mt 13835 2985 L
13835 2985 mt 13835 2985 L
7955 2363 mt 13835 2363 L
13835 2363 mt 13835 2363 L
7955 1741 mt 13835 1741 L
13835 1741 mt 13835 1741 L
7955 1119 mt 13835 1119 L
13835 1119 mt 13835 1119 L
7955  497 mt 13835  497 L
13835  497 mt 13835  497 L
SO
6 w
7955  497 mt 13835  497 L
7955 3607 mt 13835 3607 L
13835 3607 mt 13835  497 L
7955 3607 mt 7955  497 L
7955 3607 mt 13835 3607 L
7955 3607 mt 7955  497 L
7955 3607 mt 7955 3548 L
7955  497 mt 7955  556 L
%%IncludeResource: font Helvetica
/Helvetica /WindowsLatin1Encoding 216 FMSR

7835 3842 mt 
(10) s
8608 3607 mt 8608 3548 L
8608  497 mt 8608  556 L
8488 3842 mt 
(20) s
9261 3607 mt 9261 3548 L
9261  497 mt 9261  556 L
9141 3842 mt 
(30) s
9915 3607 mt 9915 3548 L
9915  497 mt 9915  556 L
9795 3842 mt 
(40) s
10568 3607 mt 10568 3548 L
10568  497 mt 10568  556 L
10448 3842 mt 
(50) s
11221 3607 mt 11221 3548 L
11221  497 mt 11221  556 L
11101 3842 mt 
(60) s
11875 3607 mt 11875 3548 L
11875  497 mt 11875  556 L
11755 3842 mt 
(70) s
12528 3607 mt 12528 3548 L
12528  497 mt 12528  556 L
12408 3842 mt 
(80) s
13181 3607 mt 13181 3548 L
13181  497 mt 13181  556 L
13061 3842 mt 
(90) s
13835 3607 mt 13835 3548 L
13835  497 mt 13835  556 L
13655 3842 mt 
(100) s
7955 3607 mt 8013 3607 L
13835 3607 mt 13776 3607 L
7500 3687 mt 
(1.14) s
7955 2985 mt 8013 2985 L
13835 2985 mt 13776 2985 L
7500 3065 mt 
(1.16) s
7955 2363 mt 8013 2363 L
13835 2363 mt 13776 2363 L
7500 2443 mt 
(1.18) s
7955 1741 mt 8013 1741 L
13835 1741 mt 13776 1741 L
7620 1821 mt 
(1.2) s
7955 1119 mt 8013 1119 L
13835 1119 mt 13776 1119 L
7500 1199 mt 
(1.22) s
7955  497 mt 8013  497 L
13835  497 mt 13776  497 L
7500  577 mt 
(1.24) s
7955  443 mt 
(x 10) s
%%IncludeResource: font Helvetica
/Helvetica /WindowsLatin1Encoding 144 FMSR

8363  309 mt 
(-12) s
7955  497 mt 13835  497 L
7955 3607 mt 13835 3607 L
13835 3607 mt 13835  497 L
7955 3607 mt 7955  497 L
gs 7955 498 5881 3110 rc
24 w
/c8 { 0.000000 0.000000 1.000000 sr} bdef
c8
654 184 653 -31 653 0 654 0 653 0 653 61 654 -30 653 -62 
653 92 7955 1406 10 MP stroke
gr

24 w
c8
gs 7749 1200 6293 627 rc
0 j
0 -142 -142 0 0 142 142 0 7884 1335 5 MP
DP
0 -142 -142 0 0 142 142 0 8537 1427 5 MP
DP
0 -142 -142 0 0 142 142 0 9190 1365 5 MP
DP
0 -142 -142 0 0 142 142 0 9844 1335 5 MP
DP
0 -142 -142 0 0 142 142 0 10497 1396 5 MP
DP
0 -142 -142 0 0 142 142 0 11150 1396 5 MP
DP
0 -142 -142 0 0 142 142 0 11804 1396 5 MP
DP
0 -142 -142 0 0 142 142 0 12457 1396 5 MP
DP
0 -142 -142 0 0 142 142 0 13110 1365 5 MP
DP
0 -142 -142 0 0 142 142 0 13764 1549 5 MP
DP
gr

gs 7955 498 5881 3110 rc
gr

0 sg
%%IncludeResource: font Helvetica
/Helvetica /WindowsLatin1Encoding 240 FMSR

9622  321 mt 
(Wilcoxon rank-sum test) s
gs 7955 498 5881 3110 rc
DO
/c9 { 1.000000 0.000000 0.000000 sr} bdef
c9
654 -92 653 92 653 -92 654 122 653 -30 653 61 654 -61 653 -62 
653 0 7955 1498 10 MP stroke
gr

c9
DO
gs 7749 1169 6293 566 rc
SO
  90   90 7955 1498 FO
  90   90 8608 1498 FO
  90   90 9261 1436 FO
  90   90 9915 1375 FO
  90   90 10568 1436 FO
  90   90 11221 1406 FO
  90   90 11875 1528 FO
  90   90 12528 1436 FO
  90   90 13181 1528 FO
  90   90 13835 1436 FO
DO
gr

gs 7955 498 5881 3110 rc
DD
/c10 { 0.000000 1.000000 0.000000 sr} bdef
c10
654 0 653 -184 653 122 654 -336 653 275 653 61 654 0 653 -92 
653 154 7955 1436 10 MP stroke
gr

c10
DD
gs 7749 1230 6293 811 rc
SO
0 j
104 179 -208 0 104 -179 7955 1555 4 MP
DP
104 179 -208 0 104 -179 8608 1709 4 MP
DP
104 179 -208 0 104 -179 9261 1617 4 MP
DP
104 179 -208 0 104 -179 9915 1617 4 MP
DP
104 179 -208 0 104 -179 10568 1678 4 MP
DP
104 179 -208 0 104 -179 11221 1953 4 MP
DP
104 179 -208 0 104 -179 11875 1617 4 MP
DP
104 179 -208 0 104 -179 12528 1739 4 MP
DP
104 179 -208 0 104 -179 13181 1555 4 MP
DP
104 179 -208 0 104 -179 13835 1555 4 MP
DP
DD
gr

gs 7955 498 5881 3110 rc
DA
/c11 { 0.000000 0.000000 0.172414 sr} bdef
c11
654 31 653 -274 653 396 654 -153 653 -546 653 638 654 31 653 0 
653 0 7955 1528 10 MP stroke
gr

c11
DA
gs 7749 1292 6293 1112 rc
SO
7892 1465 mt 8018 1591 L
8018 1465 mt 7892 1591 L
8545 1465 mt 8671 1591 L
8671 1465 mt 8545 1591 L
9198 1465 mt 9324 1591 L
9324 1465 mt 9198 1591 L
9852 1496 mt 9978 1622 L
9978 1496 mt 9852 1622 L
10505 2134 mt 10631 2260 L
10631 2134 mt 10505 2260 L
11158 1588 mt 11284 1714 L
11284 1588 mt 11158 1714 L
11812 1435 mt 11938 1561 L
11938 1435 mt 11812 1561 L
12465 1831 mt 12591 1957 L
12591 1831 mt 12465 1957 L
13118 1557 mt 13244 1683 L
13244 1557 mt 13118 1683 L
13772 1588 mt 13898 1714 L
13898 1588 mt 13772 1714 L
DA
gr

gs 7955 498 5881 3110 rc
SO
/c12 { 1.000000 0.103448 0.724138 sr} bdef
c12
654 425 653 -91 653 -213 654 152 653 244 653 -153 654 -273 653 487 
653 -396 7955 1955 10 MP stroke
gr

c12
SO
gs 7749 1353 6293 991 rc
0 j
90 119 -90 119 -90 -119 90 -119 7955 2074 5 MP
DP
90 119 -90 119 -90 -119 90 -119 8608 1678 5 MP
DP
90 119 -90 119 -90 -119 90 -119 9261 2165 5 MP
DP
90 119 -90 119 -90 -119 90 -119 9915 1892 5 MP
DP
90 119 -90 119 -90 -119 90 -119 10568 1739 5 MP
DP
90 119 -90 119 -90 -119 90 -119 11221 1983 5 MP
DP
90 119 -90 119 -90 -119 90 -119 11875 2135 5 MP
DP
90 119 -90 119 -90 -119 90 -119 12528 1922 5 MP
DP
90 119 -90 119 -90 -119 90 -119 13181 1831 5 MP
DP
90 119 -90 119 -90 -119 90 -119 13835 2256 5 MP
DP
gr

gs 7955 498 5881 3110 rc
DO
/c13 { 0.000000 0.344828 0.000000 sr} bdef
c13
654 1551 653 -813 653 813 654 -842 653 -267 653 207 654 -89 653 59 
653 -89 7955 2855 10 MP stroke
gr

c13
DO
gs 7749 1628 6293 1964 rc
SO
7865 2855 mt 8045 2855 L
7955 2765 mt 7955 2945 L
8518 2766 mt 8698 2766 L
8608 2676 mt 8608 2856 L
9171 2825 mt 9351 2825 L
9261 2735 mt 9261 2915 L
9825 2736 mt 10005 2736 L
9915 2646 mt 9915 2826 L
10478 2943 mt 10658 2943 L
10568 2853 mt 10568 3033 L
11131 2676 mt 11311 2676 L
11221 2586 mt 11221 2766 L
11785 1834 mt 11965 1834 L
11875 1744 mt 11875 1924 L
12438 2647 mt 12618 2647 L
12528 2557 mt 12528 2737 L
13091 1834 mt 13271 1834 L
13181 1744 mt 13181 1924 L
13745 3385 mt 13925 3385 L
13835 3295 mt 13835 3475 L
7892 2792 mt 8018 2918 L
8018 2792 mt 7892 2918 L
8545 2703 mt 8671 2829 L
8671 2703 mt 8545 2829 L
9198 2762 mt 9324 2888 L
9324 2762 mt 9198 2888 L
9852 2673 mt 9978 2799 L
9978 2673 mt 9852 2799 L
10505 2880 mt 10631 3006 L
10631 2880 mt 10505 3006 L
11158 2613 mt 11284 2739 L
11284 2613 mt 11158 2739 L
11812 1771 mt 11938 1897 L
11938 1771 mt 11812 1897 L
12465 2584 mt 12591 2710 L
12591 2584 mt 12465 2710 L
13118 1771 mt 13244 1897 L
13244 1771 mt 13118 1897 L
13772 3322 mt 13898 3448 L
13898 3322 mt 13772 3448 L
DO
gr

gs 7955 498 5881 3110 rc
SO
6 w
gr

6 w
SO
1 sg
0 3110 5880 0 0 -3110 7955 7464 4 MP
PP
-5880 0 0 3110 5880 0 0 -3110 7955 7464 5 MP stroke
4 w
DO
0 sg
7955 7464 mt 7955 4354 L
7955 4354 mt 7955 4354 L
8608 7464 mt 8608 4354 L
8608 4354 mt 8608 4354 L
9261 7464 mt 9261 4354 L
9261 4354 mt 9261 4354 L
9915 7464 mt 9915 4354 L
9915 4354 mt 9915 4354 L
10568 7464 mt 10568 4354 L
10568 4354 mt 10568 4354 L
11221 7464 mt 11221 4354 L
11221 4354 mt 11221 4354 L
11875 7464 mt 11875 4354 L
11875 4354 mt 11875 4354 L
12528 7464 mt 12528 4354 L
12528 4354 mt 12528 4354 L
13181 7464 mt 13181 4354 L
13181 4354 mt 13181 4354 L
13835 7464 mt 13835 4354 L
13835 4354 mt 13835 4354 L
7955 7464 mt 13835 7464 L
13835 7464 mt 13835 7464 L
7955 6427 mt 13835 6427 L
13835 6427 mt 13835 6427 L
7955 5390 mt 13835 5390 L
13835 5390 mt 13835 5390 L
7955 4354 mt 13835 4354 L
13835 4354 mt 13835 4354 L
SO
6 w
7955 4354 mt 13835 4354 L
7955 7464 mt 13835 7464 L
13835 7464 mt 13835 4354 L
7955 7464 mt 7955 4354 L
7955 7464 mt 13835 7464 L
7955 7464 mt 7955 4354 L
7955 7464 mt 7955 7405 L
7955 4354 mt 7955 4412 L
%%IncludeResource: font Helvetica
/Helvetica /WindowsLatin1Encoding 216 FMSR

7835 7699 mt 
(10) s
8608 7464 mt 8608 7405 L
8608 4354 mt 8608 4412 L
8488 7699 mt 
(20) s
9261 7464 mt 9261 7405 L
9261 4354 mt 9261 4412 L
9141 7699 mt 
(30) s
9915 7464 mt 9915 7405 L
9915 4354 mt 9915 4412 L
9795 7699 mt 
(40) s
10568 7464 mt 10568 7405 L
10568 4354 mt 10568 4412 L
10448 7699 mt 
(50) s
11221 7464 mt 11221 7405 L
11221 4354 mt 11221 4412 L
11101 7699 mt 
(60) s
11875 7464 mt 11875 7405 L
11875 4354 mt 11875 4412 L
11755 7699 mt 
(70) s
12528 7464 mt 12528 7405 L
12528 4354 mt 12528 4412 L
12408 7699 mt 
(80) s
13181 7464 mt 13181 7405 L
13181 4354 mt 13181 4412 L
13061 7699 mt 
(90) s
13835 7464 mt 13835 7405 L
13835 4354 mt 13835 4412 L
13655 7699 mt 
(100) s
7955 7464 mt 8013 7464 L
13835 7464 mt 13776 7464 L
7800 7544 mt 
(0) s
7955 6427 mt 8013 6427 L
13835 6427 mt 13776 6427 L
7620 6507 mt 
(0.5) s
7955 5390 mt 8013 5390 L
13835 5390 mt 13776 5390 L
7800 5470 mt 
(1) s
7955 4354 mt 8013 4354 L
13835 4354 mt 13776 4354 L
7620 4434 mt 
(1.5) s
7955 4300 mt 
(x 10) s
%%IncludeResource: font Helvetica
/Helvetica /WindowsLatin1Encoding 144 FMSR

8363 4166 mt 
(-12) s
7955 4354 mt 13835 4354 L
7955 7464 mt 13835 7464 L
13835 7464 mt 13835 4354 L
7955 7464 mt 7955 4354 L
gs 7955 4354 5881 3111 rc
24 w
c8
654 -46 653 -217 653 -44 654 209 653 5 653 -118 654 -17 653 -92 
653 335 7955 5201 10 MP stroke
gr

24 w
c8
gs 7749 4995 6293 748 rc
0 j
0 -142 -142 0 0 142 142 0 7884 5130 5 MP
DP
0 -142 -142 0 0 142 142 0 8537 5465 5 MP
DP
0 -142 -142 0 0 142 142 0 9190 5373 5 MP
DP
0 -142 -142 0 0 142 142 0 9844 5356 5 MP
DP
0 -142 -142 0 0 142 142 0 10497 5238 5 MP
DP
0 -142 -142 0 0 142 142 0 11150 5243 5 MP
DP
0 -142 -142 0 0 142 142 0 11804 5452 5 MP
DP
0 -142 -142 0 0 142 142 0 12457 5408 5 MP
DP
0 -142 -142 0 0 142 142 0 13110 5191 5 MP
DP
0 -142 -142 0 0 142 142 0 13764 5145 5 MP
DP
gr

gs 7955 4354 5881 3111 rc
gr

0 sg
%%IncludeResource: font Helvetica
/Helvetica /WindowsLatin1Encoding 240 FMSR

9622 4177 mt 
(Wilcoxon rank-sum test) s
9834 7930 mt 
(Columns added \(%\)) s
gs 7955 4354 5881 3111 rc
DO
c9
654 -98 653 38 653 -95 654 -317 653 421 653 -104 654 -72 653 105 
653 -39 7955 5388 10 MP stroke
gr

c9
DO
gs 7749 5021 6293 885 rc
SO
  90   90 7955 5388 FO
  90   90 8608 5349 FO
  90   90 9261 5454 FO
  90   90 9915 5382 FO
  90   90 10568 5278 FO
  90   90 11221 5699 FO
  90   90 11875 5382 FO
  90   90 12528 5287 FO
  90   90 13181 5325 FO
  90   90 13835 5227 FO
DO
gr

gs 7955 4354 5881 3111 rc
DD
c10
654 -24 653 -45 653 -581 654 452 653 -588 653 700 654 -213 653 432 
653 -318 7955 5931 10 MP stroke
gr

c10
DD
gs 7749 5407 6293 1332 rc
SO
0 j
104 179 -208 0 104 -179 7955 6050 4 MP
DP
104 179 -208 0 104 -179 8608 5732 4 MP
DP
104 179 -208 0 104 -179 9261 6164 4 MP
DP
104 179 -208 0 104 -179 9915 5951 4 MP
DP
104 179 -208 0 104 -179 10568 6651 4 MP
DP
104 179 -208 0 104 -179 11221 6063 4 MP
DP
104 179 -208 0 104 -179 11875 6515 4 MP
DP
104 179 -208 0 104 -179 12528 5934 4 MP
DP
104 179 -208 0 104 -179 13181 5889 4 MP
DP
104 179 -208 0 104 -179 13835 5865 4 MP
DP
DD
gr

gs 7955 4354 5881 3111 rc
DA
c11
654 288 653 -31 653 -369 654 25 653 176 653 -202 654 307 653 -182 
653 294 7955 5810 10 MP stroke
gr

c11
DA
gs 7749 5604 6293 832 rc
SO
7892 5747 mt 8018 5873 L
8018 5747 mt 7892 5873 L
8545 6041 mt 8671 6167 L
8671 6041 mt 8545 6167 L
9198 5859 mt 9324 5985 L
9324 5859 mt 9198 5985 L
9852 6166 mt 9978 6292 L
9978 6166 mt 9852 6292 L
10505 5964 mt 10631 6090 L
10631 5964 mt 10505 6090 L
11158 6140 mt 11284 6266 L
11284 6140 mt 11158 6266 L
11812 6165 mt 11938 6291 L
11938 6165 mt 11812 6291 L
12465 5796 mt 12591 5922 L
12591 5796 mt 12465 5922 L
13118 5765 mt 13244 5891 L
13244 5765 mt 13118 5891 L
13772 6053 mt 13898 6179 L
13898 6053 mt 13772 6179 L
DA
gr

gs 7955 4354 5881 3111 rc
SO
c12
654 435 653 218 653 -23 654 256 653 -371 653 -80 654 -714 653 670 
653 -148 7955 6695 10 MP stroke
gr

c12
SO
gs 7749 5846 6293 1578 rc
0 j
90 119 -90 119 -90 -119 90 -119 7955 6814 5 MP
DP
90 119 -90 119 -90 -119 90 -119 8608 6666 5 MP
DP
90 119 -90 119 -90 -119 90 -119 9261 7336 5 MP
DP
90 119 -90 119 -90 -119 90 -119 9915 6622 5 MP
DP
90 119 -90 119 -90 -119 90 -119 10568 6542 5 MP
DP
90 119 -90 119 -90 -119 90 -119 11221 6171 5 MP
DP
90 119 -90 119 -90 -119 90 -119 11875 6427 5 MP
DP
90 119 -90 119 -90 -119 90 -119 12528 6404 5 MP
DP
90 119 -90 119 -90 -119 90 -119 13181 6622 5 MP
DP
90 119 -90 119 -90 -119 90 -119 13835 7057 5 MP
DP
gr

gs 7955 4354 5881 3111 rc
DO
c13
654 -52 653 398 653 -399 654 -40 653 161 653 -121 654 -70 653 352 
653 -229 7955 7284 10 MP stroke
gr

c13
DO
gs 7749 6732 6293 882 rc
SO
7865 7284 mt 8045 7284 L
7955 7194 mt 7955 7374 L
8518 7055 mt 8698 7055 L
8608 6965 mt 8608 7145 L
9171 7407 mt 9351 7407 L
9261 7317 mt 9261 7497 L
9825 7337 mt 10005 7337 L
9915 7247 mt 9915 7427 L
10478 7216 mt 10658 7216 L
10568 7126 mt 10568 7306 L
11131 7377 mt 11311 7377 L
11221 7287 mt 11221 7467 L
11785 7337 mt 11965 7337 L
11875 7247 mt 11875 7427 L
12438 6938 mt 12618 6938 L
12528 6848 mt 12528 7028 L
13091 7336 mt 13271 7336 L
13181 7246 mt 13181 7426 L
13745 7284 mt 13925 7284 L
13835 7194 mt 13835 7374 L
7892 7221 mt 8018 7347 L
8018 7221 mt 7892 7347 L
8545 6992 mt 8671 7118 L
8671 6992 mt 8545 7118 L
9198 7344 mt 9324 7470 L
9324 7344 mt 9198 7470 L
9852 7274 mt 9978 7400 L
9978 7274 mt 9852 7400 L
10505 7153 mt 10631 7279 L
10631 7153 mt 10505 7279 L
11158 7314 mt 11284 7440 L
11284 7314 mt 11158 7440 L
11812 7274 mt 11938 7400 L
11938 7274 mt 11812 7400 L
12465 6875 mt 12591 7001 L
12591 6875 mt 12465 7001 L
13118 7273 mt 13244 7399 L
13244 7273 mt 13118 7399 L
13772 7221 mt 13898 7347 L
13898 7221 mt 13772 7347 L
DO
gr

gs 7955 4354 5881 3111 rc
SO
6 w
gr

6 w
SO
1 sg
0 3109 5880 0 0 -3109 1038 3607 4 MP
PP
-5880 0 0 3109 5880 0 0 -3109 1038 3607 5 MP stroke
4 w
DO
0 sg
1038 3607 mt 1038  498 L
1038  498 mt 1038  498 L
1691 3607 mt 1691  498 L
1691  498 mt 1691  498 L
2344 3607 mt 2344  498 L
2344  498 mt 2344  498 L
2998 3607 mt 2998  498 L
2998  498 mt 2998  498 L
3651 3607 mt 3651  498 L
3651  498 mt 3651  498 L
4304 3607 mt 4304  498 L
4304  498 mt 4304  498 L
4958 3607 mt 4958  498 L
4958  498 mt 4958  498 L
5611 3607 mt 5611  498 L
5611  498 mt 5611  498 L
6264 3607 mt 6264  498 L
6264  498 mt 6264  498 L
6918 3607 mt 6918  498 L
6918  498 mt 6918  498 L
1038 3607 mt 6918 3607 L
6918 3607 mt 6918 3607 L
1038 2829 mt 6918 2829 L
6918 2829 mt 6918 2829 L
1038 2052 mt 6918 2052 L
6918 2052 mt 6918 2052 L
1038 1275 mt 6918 1275 L
6918 1275 mt 6918 1275 L
1038  498 mt 6918  498 L
6918  498 mt 6918  498 L
SO
6 w
1038  498 mt 6918  498 L
1038 3607 mt 6918 3607 L
6918 3607 mt 6918  498 L
1038 3607 mt 1038  498 L
1038 3607 mt 6918 3607 L
1038 3607 mt 1038  498 L
1038 3607 mt 1038 3548 L
1038  498 mt 1038  556 L
%%IncludeResource: font Helvetica
/Helvetica /WindowsLatin1Encoding 216 FMSR

 918 3842 mt 
(10) s
1691 3607 mt 1691 3548 L
1691  498 mt 1691  556 L
1571 3842 mt 
(20) s
2344 3607 mt 2344 3548 L
2344  498 mt 2344  556 L
2224 3842 mt 
(30) s
2998 3607 mt 2998 3548 L
2998  498 mt 2998  556 L
2878 3842 mt 
(40) s
3651 3607 mt 3651 3548 L
3651  498 mt 3651  556 L
3531 3842 mt 
(50) s
4304 3607 mt 4304 3548 L
4304  498 mt 4304  556 L
4184 3842 mt 
(60) s
4958 3607 mt 4958 3548 L
4958  498 mt 4958  556 L
4838 3842 mt 
(70) s
5611 3607 mt 5611 3548 L
5611  498 mt 5611  556 L
5491 3842 mt 
(80) s
6264 3607 mt 6264 3548 L
6264  498 mt 6264  556 L
6144 3842 mt 
(90) s
6918 3607 mt 6918 3548 L
6918  498 mt 6918  556 L
6738 3842 mt 
(100) s
1038 3607 mt 1096 3607 L
6918 3607 mt 6859 3607 L
 883 3687 mt 
(0) s
1038 2829 mt 1096 2829 L
6918 2829 mt 6859 2829 L
 643 2909 mt 
(100) s
1038 2052 mt 1096 2052 L
6918 2052 mt 6859 2052 L
 643 2132 mt 
(200) s
1038 1275 mt 1096 1275 L
6918 1275 mt 6859 1275 L
 643 1355 mt 
(300) s
1038  498 mt 1096  498 L
6918  498 mt 6859  498 L
 643  578 mt 
(400) s
1038  498 mt 6918  498 L
1038 3607 mt 6918 3607 L
6918 3607 mt 6918  498 L
1038 3607 mt 1038  498 L
gs 1038 498 5881 3110 rc
24 w
c8
654 528 653 -443 653 280 654 -31 653 358 653 -350 654 256 653 -178 
653 210 1038 839 10 MP stroke
gr

24 w
c8
gs 832 571 6293 1105 rc
0 j
0 -142 -142 0 0 142 142 0 967 768 5 MP
DP
0 -142 -142 0 0 142 142 0 1620 978 5 MP
DP
0 -142 -142 0 0 142 142 0 2273 800 5 MP
DP
0 -142 -142 0 0 142 142 0 2927 1056 5 MP
DP
0 -142 -142 0 0 142 142 0 3580 706 5 MP
DP
0 -142 -142 0 0 142 142 0 4233 1064 5 MP
DP
0 -142 -142 0 0 142 142 0 4887 1033 5 MP
DP
0 -142 -142 0 0 142 142 0 5540 1313 5 MP
DP
0 -142 -142 0 0 142 142 0 6193 870 5 MP
DP
0 -142 -142 0 0 142 142 0 6847 1398 5 MP
DP
gr

gs 1038 498 5881 3110 rc
gr

0 sg
%%IncludeResource: font Helvetica
/Helvetica /WindowsLatin1Encoding 240 FMSR

2204  212 mt 
(Time to reach feasible solution Q) s
%%IncludeResource: font Helvetica
/Helvetica /WindowsLatin1Encoding 192 FMSR

5700  332 mt 
(t) s
gs 1038 498 5881 3110 rc
DO
c9
654 -15 653 -16 653 -373 654 226 653 7 653 272 654 -209 653 -24 
653 -8 1038 1112 10 MP stroke
gr

c9
DO
gs 832 665 6293 918 rc
SO
  90   90 1038 1112 FO
  90   90 1691 1104 FO
  90   90 2344 1080 FO
  90   90 2998  871 FO
  90   90 3651 1143 FO
  90   90 4304 1150 FO
  90   90 4958 1376 FO
  90   90 5611 1003 FO
  90   90 6264  987 FO
  90   90 6918  972 FO
DO
gr

gs 1038 498 5881 3110 rc
DD
c10
654 31 653 -78 653 86 654 39 653 -109 653 54 654 78 653 -31 
653 -8 1038 2643 10 MP stroke
gr

c10
DD
gs 832 2398 6293 561 rc
SO
0 j
104 179 -208 0 104 -179 1038 2762 4 MP
DP
104 179 -208 0 104 -179 1691 2754 4 MP
DP
104 179 -208 0 104 -179 2344 2723 4 MP
DP
104 179 -208 0 104 -179 2998 2801 4 MP
DP
104 179 -208 0 104 -179 3651 2855 4 MP
DP
104 179 -208 0 104 -179 4304 2746 4 MP
DP
104 179 -208 0 104 -179 4958 2785 4 MP
DP
104 179 -208 0 104 -179 5611 2871 4 MP
DP
104 179 -208 0 104 -179 6264 2793 4 MP
DP
104 179 -208 0 104 -179 6918 2824 4 MP
DP
DD
gr

gs 1038 498 5881 3110 rc
DA
c11
654 8 653 39 653 -16 654 0 653 -78 653 171 654 32 653 -156 
653 0 1038 2705 10 MP stroke
gr

c11
DA
gs 832 2343 6293 616 rc
SO
 975 2642 mt 1101 2768 L
1101 2642 mt  975 2768 L
1628 2642 mt 1754 2768 L
1754 2642 mt 1628 2768 L
2281 2486 mt 2407 2612 L
2407 2486 mt 2281 2612 L
2935 2518 mt 3061 2644 L
3061 2518 mt 2935 2644 L
3588 2689 mt 3714 2815 L
3714 2689 mt 3588 2815 L
4241 2611 mt 4367 2737 L
4367 2611 mt 4241 2737 L
4895 2611 mt 5021 2737 L
5021 2611 mt 4895 2737 L
5548 2595 mt 5674 2721 L
5674 2595 mt 5548 2721 L
6201 2634 mt 6327 2760 L
6327 2634 mt 6201 2760 L
6855 2642 mt 6981 2768 L
6981 2642 mt 6855 2768 L
DA
gr

gs 1038 498 5881 3110 rc
SO
c12
654 -77 653 23 653 -23 654 69 653 -62 653 24 654 0 653 15 
653 -8 1038 3125 10 MP stroke
gr

c12
SO
gs 832 2880 6293 490 rc
0 j
90 119 -90 119 -90 -119 90 -119 1038 3244 5 MP
DP
90 119 -90 119 -90 -119 90 -119 1691 3236 5 MP
DP
90 119 -90 119 -90 -119 90 -119 2344 3251 5 MP
DP
90 119 -90 119 -90 -119 90 -119 2998 3251 5 MP
DP
90 119 -90 119 -90 -119 90 -119 3651 3275 5 MP
DP
90 119 -90 119 -90 -119 90 -119 4304 3213 5 MP
DP
90 119 -90 119 -90 -119 90 -119 4958 3282 5 MP
DP
90 119 -90 119 -90 -119 90 -119 5611 3259 5 MP
DP
90 119 -90 119 -90 -119 90 -119 6264 3282 5 MP
DP
90 119 -90 119 -90 -119 90 -119 6918 3205 5 MP
DP
gr

gs 1038 498 5881 3110 rc
DO
c13
654 0 653 -8 653 31 654 -31 653 8 653 -16 654 0 653 16 
653 -16 1038 3389 10 MP stroke
gr

c13
DO
gs 832 3144 6293 452 rc
SO
 948 3389 mt 1128 3389 L
1038 3299 mt 1038 3479 L
1601 3373 mt 1781 3373 L
1691 3283 mt 1691 3463 L
2254 3389 mt 2434 3389 L
2344 3299 mt 2344 3479 L
2908 3389 mt 3088 3389 L
2998 3299 mt 2998 3479 L
3561 3373 mt 3741 3373 L
3651 3283 mt 3651 3463 L
4214 3381 mt 4394 3381 L
4304 3291 mt 4304 3471 L
4868 3350 mt 5048 3350 L
4958 3260 mt 4958 3440 L
5521 3381 mt 5701 3381 L
5611 3291 mt 5611 3471 L
6174 3373 mt 6354 3373 L
6264 3283 mt 6264 3463 L
6828 3373 mt 7008 3373 L
6918 3283 mt 6918 3463 L
 975 3326 mt 1101 3452 L
1101 3326 mt  975 3452 L
1628 3310 mt 1754 3436 L
1754 3310 mt 1628 3436 L
2281 3326 mt 2407 3452 L
2407 3326 mt 2281 3452 L
2935 3326 mt 3061 3452 L
3061 3326 mt 2935 3452 L
3588 3310 mt 3714 3436 L
3714 3310 mt 3588 3436 L
4241 3318 mt 4367 3444 L
4367 3318 mt 4241 3444 L
4895 3287 mt 5021 3413 L
5021 3287 mt 4895 3413 L
5548 3318 mt 5674 3444 L
5674 3318 mt 5548 3444 L
6201 3310 mt 6327 3436 L
6327 3310 mt 6201 3436 L
6855 3310 mt 6981 3436 L
6981 3310 mt 6855 3436 L
DO
gr

gs 1038 498 5881 3110 rc
SO
6 w
gr

6 w
SO
1 sg
0 3110 5880 0 0 -3110 1038 7464 4 MP
PP
-5880 0 0 3110 5880 0 0 -3110 1038 7464 5 MP stroke
4 w
DO
0 sg
1038 7464 mt 1038 4354 L
1038 4354 mt 1038 4354 L
1691 7464 mt 1691 4354 L
1691 4354 mt 1691 4354 L
2344 7464 mt 2344 4354 L
2344 4354 mt 2344 4354 L
2998 7464 mt 2998 4354 L
2998 4354 mt 2998 4354 L
3651 7464 mt 3651 4354 L
3651 4354 mt 3651 4354 L
4304 7464 mt 4304 4354 L
4304 4354 mt 4304 4354 L
4958 7464 mt 4958 4354 L
4958 4354 mt 4958 4354 L
5611 7464 mt 5611 4354 L
5611 4354 mt 5611 4354 L
6264 7464 mt 6264 4354 L
6264 4354 mt 6264 4354 L
6918 7464 mt 6918 4354 L
6918 4354 mt 6918 4354 L
1038 6686 mt 6918 6686 L
6918 6686 mt 6918 6686 L
1038 5909 mt 6918 5909 L
6918 5909 mt 6918 5909 L
1038 5131 mt 6918 5131 L
6918 5131 mt 6918 5131 L
1038 4354 mt 6918 4354 L
6918 4354 mt 6918 4354 L
SO
6 w
1038 4354 mt 6918 4354 L
1038 7464 mt 6918 7464 L
6918 7464 mt 6918 4354 L
1038 7464 mt 1038 4354 L
1038 7464 mt 6918 7464 L
1038 7464 mt 1038 4354 L
1038 7464 mt 1038 7405 L
1038 4354 mt 1038 4412 L
%%IncludeResource: font Helvetica
/Helvetica /WindowsLatin1Encoding 216 FMSR

 918 7699 mt 
(10) s
1691 7464 mt 1691 7405 L
1691 4354 mt 1691 4412 L
1571 7699 mt 
(20) s
2344 7464 mt 2344 7405 L
2344 4354 mt 2344 4412 L
2224 7699 mt 
(30) s
2998 7464 mt 2998 7405 L
2998 4354 mt 2998 4412 L
2878 7699 mt 
(40) s
3651 7464 mt 3651 7405 L
3651 4354 mt 3651 4412 L
3531 7699 mt 
(50) s
4304 7464 mt 4304 7405 L
4304 4354 mt 4304 4412 L
4184 7699 mt 
(60) s
4958 7464 mt 4958 7405 L
4958 4354 mt 4958 4412 L
4838 7699 mt 
(70) s
5611 7464 mt 5611 7405 L
5611 4354 mt 5611 4412 L
5491 7699 mt 
(80) s
6264 7464 mt 6264 7405 L
6264 4354 mt 6264 4412 L
6144 7699 mt 
(90) s
6918 7464 mt 6918 7405 L
6918 4354 mt 6918 4412 L
6738 7699 mt 
(100) s
1038 6686 mt 1096 6686 L
6918 6686 mt 6859 6686 L
 703 6766 mt 
(1.3) s
1038 5909 mt 1096 5909 L
6918 5909 mt 6859 5909 L
 703 5989 mt 
(1.4) s
1038 5131 mt 1096 5131 L
6918 5131 mt 6859 5131 L
 703 5211 mt 
(1.5) s
1038 4354 mt 1096 4354 L
6918 4354 mt 6859 4354 L
 703 4434 mt 
(1.6) s
1038 4354 mt 6918 4354 L
1038 7464 mt 6918 7464 L
6918 7464 mt 6918 4354 L
1038 7464 mt 1038 4354 L
gs 1038 4354 5881 3111 rc
24 w
c8
654 126 653 -133 653 53 654 40 653 7 653 46 654 -33 653 -46 
653 33 1038 6420 10 MP stroke
gr

24 w
c8
gs 832 6168 6293 559 rc
0 j
0 -142 -142 0 0 142 142 0 967 6349 5 MP
DP
0 -142 -142 0 0 142 142 0 1620 6382 5 MP
DP
0 -142 -142 0 0 142 142 0 2273 6336 5 MP
DP
0 -142 -142 0 0 142 142 0 2927 6303 5 MP
DP
0 -142 -142 0 0 142 142 0 3580 6349 5 MP
DP
0 -142 -142 0 0 142 142 0 4233 6356 5 MP
DP
0 -142 -142 0 0 142 142 0 4887 6396 5 MP
DP
0 -142 -142 0 0 142 142 0 5540 6449 5 MP
DP
0 -142 -142 0 0 142 142 0 6193 6316 5 MP
DP
0 -142 -142 0 0 142 142 0 6847 6442 5 MP
DP
gr

gs 1038 4354 5881 3111 rc
gr

0 sg
%%IncludeResource: font Helvetica
/Helvetica /WindowsLatin1Encoding 240 FMSR

2720 4068 mt 
(Final solution quality Q) s
%%IncludeResource: font Helvetica
/Helvetica /WindowsLatin1Encoding 192 FMSR

5147 4188 mt 
(s) s
%%IncludeResource: font Helvetica
/Helvetica /WindowsLatin1Encoding 240 FMSR

2917 7930 mt 
(Columns added \(%\)) s
gs 1038 4354 5881 3111 rc
DO
c9
654 186 653 -7 653 -132 654 39 653 -46 653 -40 654 53 653 80 
653 -80 1038 4872 10 MP stroke
gr

c9
DO
gs 832 4533 6293 599 rc
SO
  90   90 1038 4872 FO
  90   90 1691 4792 FO
  90   90 2344 4872 FO
  90   90 2998 4925 FO
  90   90 3651 4885 FO
  90   90 4304 4839 FO
  90   90 4958 4878 FO
  90   90 5611 4746 FO
  90   90 6264 4739 FO
  90   90 6918 4925 FO
DO
gr

gs 1038 4354 5881 3111 rc
DD
c10
654 146 653 -78 653 -12 654 -33 653 -102 653 135 654 57 653 -102 
653 79 1038 6134 10 MP stroke
gr

c10
DD
gs 832 5872 6293 638 rc
SO
0 j
104 179 -208 0 104 -179 1038 6253 4 MP
DP
104 179 -208 0 104 -179 1691 6332 4 MP
DP
104 179 -208 0 104 -179 2344 6230 4 MP
DP
104 179 -208 0 104 -179 2998 6287 4 MP
DP
104 179 -208 0 104 -179 3651 6422 4 MP
DP
104 179 -208 0 104 -179 4304 6320 4 MP
DP
104 179 -208 0 104 -179 4958 6287 4 MP
DP
104 179 -208 0 104 -179 5611 6275 4 MP
DP
104 179 -208 0 104 -179 6264 6197 4 MP
DP
104 179 -208 0 104 -179 6918 6343 4 MP
DP
DD
gr

gs 1038 4354 5881 3111 rc
DA
c11
654 31 653 -31 653 62 654 -73 653 -21 653 73 654 -62 653 124 
653 -103 1038 5794 10 MP stroke
gr

c11
DA
gs 832 5485 6293 548 rc
SO
 975 5731 mt 1101 5857 L
1101 5731 mt  975 5857 L
1628 5628 mt 1754 5754 L
1754 5628 mt 1628 5754 L
2281 5752 mt 2407 5878 L
2407 5752 mt 2281 5878 L
2935 5690 mt 3061 5816 L
3061 5690 mt 2935 5816 L
3588 5763 mt 3714 5889 L
3714 5763 mt 3588 5889 L
4241 5742 mt 4367 5868 L
4367 5742 mt 4241 5868 L
4895 5669 mt 5021 5795 L
5021 5669 mt 4895 5795 L
5548 5731 mt 5674 5857 L
5674 5731 mt 5548 5857 L
6201 5700 mt 6327 5826 L
6327 5700 mt 6201 5826 L
6855 5731 mt 6981 5857 L
6981 5731 mt 6855 5857 L
DA
gr

gs 1038 4354 5881 3111 rc
SO
c12
654 -61 653 -46 653 -46 654 76 653 -91 653 107 654 30 653 -61 
653 0 1038 6427 10 MP stroke
gr

c12
SO
gs 832 6129 6293 581 rc
0 j
90 119 -90 119 -90 -119 90 -119 1038 6546 5 MP
DP
90 119 -90 119 -90 -119 90 -119 1691 6546 5 MP
DP
90 119 -90 119 -90 -119 90 -119 2344 6485 5 MP
DP
90 119 -90 119 -90 -119 90 -119 2998 6515 5 MP
DP
90 119 -90 119 -90 -119 90 -119 3651 6622 5 MP
DP
90 119 -90 119 -90 -119 90 -119 4304 6531 5 MP
DP
90 119 -90 119 -90 -119 90 -119 4958 6607 5 MP
DP
90 119 -90 119 -90 -119 90 -119 5611 6561 5 MP
DP
90 119 -90 119 -90 -119 90 -119 6264 6515 5 MP
DP
90 119 -90 119 -90 -119 90 -119 6918 6454 5 MP
DP
gr

gs 1038 4354 5881 3111 rc
DO
c13
654 78 653 -78 653 26 654 26 653 26 653 -52 654 52 653 -155 
653 77 1038 6790 10 MP stroke
gr

c13
DO
gs 832 6506 6293 568 rc
SO
 948 6790 mt 1128 6790 L
1038 6700 mt 1038 6880 L
1601 6867 mt 1781 6867 L
1691 6777 mt 1691 6957 L
2254 6712 mt 2434 6712 L
2344 6622 mt 2344 6802 L
2908 6764 mt 3088 6764 L
2998 6674 mt 2998 6854 L
3561 6712 mt 3741 6712 L
3651 6622 mt 3651 6802 L
4214 6738 mt 4394 6738 L
4304 6648 mt 4304 6828 L
4868 6764 mt 5048 6764 L
4958 6674 mt 4958 6854 L
5521 6790 mt 5701 6790 L
5611 6700 mt 5611 6880 L
6174 6712 mt 6354 6712 L
6264 6622 mt 6264 6802 L
6828 6790 mt 7008 6790 L
6918 6700 mt 6918 6880 L
 975 6727 mt 1101 6853 L
1101 6727 mt  975 6853 L
1628 6804 mt 1754 6930 L
1754 6804 mt 1628 6930 L
2281 6649 mt 2407 6775 L
2407 6649 mt 2281 6775 L
2935 6701 mt 3061 6827 L
3061 6701 mt 2935 6827 L
3588 6649 mt 3714 6775 L
3714 6649 mt 3588 6775 L
4241 6675 mt 4367 6801 L
4367 6675 mt 4241 6801 L
4895 6701 mt 5021 6827 L
5021 6701 mt 4895 6827 L
5548 6727 mt 5674 6853 L
5674 6727 mt 5548 6853 L
6201 6649 mt 6327 6775 L
6327 6649 mt 6201 6775 L
6855 6727 mt 6981 6853 L
6981 6727 mt 6855 6853 L
DO
gr

gs 1038 4354 5881 3111 rc
gr

0 sg
%%IncludeResource: font Helvetica
/Helvetica /WindowsLatin1Encoding 120 FMSR

1021 7507 mt 
( ) s
6902 4396 mt 
( ) s
SO
6 w
1 sg
0 1644 1296 0 0 -1644 14028 2155 4 MP
PP
-1296 0 0 1644 1296 0 0 -1644 14028 2155 5 MP stroke
4 w
DO
SO
6 w
0 sg
14028  511 mt 15324  511 L
14028 2155 mt 15324 2155 L
15324 2155 mt 15324  511 L
14028 2155 mt 14028  511 L
14028 2155 mt 15324 2155 L
14028 2155 mt 14028  511 L
14028  511 mt 15324  511 L
14028 2155 mt 15324 2155 L
15324 2155 mt 15324  511 L
14028 2155 mt 14028  511 L
%%IncludeResource: font Helvetica
/Helvetica /WindowsLatin1Encoding 216 FMSR

14496  743 mt 
(scp41) s
gs 14028 511 1297 1645 rc
24 w
c8
360 0 14100 665 2 MP stroke
gr

24 w
c8
gs 14074 459 413 413 rc
0 j
0 -142 -142 0 0 142 142 0 14209 594 5 MP
DP
gr

gs 14028 511 1297 1645 rc
gr

0 sg
14496 1010 mt 
(scp63) s
gs 14028 511 1297 1645 rc
DO
c9
360 0 14100 932 2 MP stroke
SO
gs 14074 726 413 413 rc
  90   90 14280  932 FO
gr

gr

c9
0 sg
14496 1277 mt 
(scpa5) s
gs 14028 511 1297 1645 rc
DD
c10
360 0 14100 1199 2 MP stroke
SO
gs 14074 993 413 413 rc
0 j
104 179 -208 0 104 -179 14280 1318 4 MP
DP
gr

gr

c10
0 sg
14496 1544 mt 
(scpb4) s
gs 14028 511 1297 1645 rc
DA
c11
360 0 14100 1466 2 MP stroke
SO
gs 14074 1260 413 413 rc
14217 1403 mt 14343 1529 L
14343 1403 mt 14217 1529 L
gr

gr

c11
0 sg
14496 1811 mt 
(scpd2) s
gs 14028 511 1297 1645 rc
c12
360 0 14100 1733 2 MP stroke
gs 14074 1527 413 413 rc
0 j
90 119 -90 119 -90 -119 90 -119 14280 1852 5 MP
DP
gr

gr

c12
0 sg
14496 2078 mt 
(scpnre1) s
gs 14028 511 1297 1645 rc
DO
c13
360 0 14100 2000 2 MP stroke
SO
gr

c13
gs 14074 1794 413 413 rc
14190 2000 mt 14370 2000 L
14280 1910 mt 14280 2090 L
14217 1937 mt 14343 2063 L
14343 1937 mt 14217 2063 L
gr

gs 14028 511 1297 1645 rc
6 w
gr

6 w

end %%Color Dict

eplot
%%EndObject

epage
end

showpage

%%Trailer
%%EOF
