%!PS-Adobe-3.0 EPSF-3.0
%%Creator: MATLAB, The MathWorks, Inc. Version 8.2.0.701 (R2013b). Operating System: Microsoft Windows 8.
%%Title: C:\Users\Ayush\Desktop\gecco\Remcolumn.eps
%%CreationDate: 04/10/2015  23:13:36
%%DocumentNeededFonts: Helvetica
%%DocumentProcessColors: Cyan Magenta Yellow Black
%%LanguageLevel: 2
%%Pages: 1
%%BoundingBox:  -422    74  1019   766
%%EndComments

%%BeginProlog
% MathWorks dictionary
/MathWorks 160 dict begin
% definition operators
/bdef {bind def} bind def
/ldef {load def} bind def
/xdef {exch def} bdef
/xstore {exch store} bdef
% operator abbreviations
/c  /clip ldef
/cc /concat ldef
/cp /closepath ldef
/gr /grestore ldef
/gs /gsave ldef
/mt /moveto ldef
/np /newpath ldef
/cm /currentmatrix ldef
/sm /setmatrix ldef
/rm /rmoveto ldef
/rl /rlineto ldef
/s {show newpath} bdef
/sc {setcmykcolor} bdef
/sr /setrgbcolor ldef
/sg /setgray ldef
/w /setlinewidth ldef
/j /setlinejoin ldef
/cap /setlinecap ldef
/rc {rectclip} bdef
/rf {rectfill} bdef
% page state control
/pgsv () def
/bpage {/pgsv save def} bdef
/epage {pgsv restore} bdef
/bplot /gsave ldef
/eplot {stroke grestore} bdef
% orientation switch
/portraitMode 0 def /landscapeMode 1 def /rotateMode 2 def
% coordinate system mappings
/dpi2point 0 def
% font control
/FontSize 0 def
/FMS {/FontSize xstore findfont [FontSize 0 0 FontSize neg 0 0]
  makefont setfont} bdef
/ISOLatin1Encoding where {pop /WindowsLatin1Encoding 256 array bdef
ISOLatin1Encoding WindowsLatin1Encoding copy pop
/.notdef/.notdef/quotesinglbase/florin/quotedblbase/ellipsis/dagger
/daggerdbl/circumflex/perthousand/Scaron/guilsinglleft/OE/.notdef/.notdef
/.notdef/.notdef/quoteleft/quoteright/quotedblleft/quotedblright/bullet
/endash/emdash/tilde/trademark/scaron/guilsinglright/oe/.notdef/.notdef
/Ydieresis WindowsLatin1Encoding 128 32 getinterval astore pop}
{/WindowsLatin1Encoding StandardEncoding bdef} ifelse
/reencode {exch dup where {pop load} {pop StandardEncoding} ifelse
  exch dup 3 1 roll findfont dup length dict begin
  { 1 index /FID ne {def}{pop pop} ifelse } forall
  /Encoding exch def currentdict end definefont pop} bdef
/isroman {findfont /CharStrings get /Agrave known} bdef
/FMSR {3 1 roll 1 index dup isroman {reencode} {pop pop} ifelse
  exch FMS} bdef
/csm {1 dpi2point div -1 dpi2point div scale neg translate
 dup landscapeMode eq {pop -90 rotate}
  {rotateMode eq {90 rotate} if} ifelse} bdef
% line types: solid, dotted, dashed, dotdash
/SO { [] 0 setdash } bdef
/DO { [.5 dpi2point mul 4 dpi2point mul] 0 setdash } bdef
/DA { [6 dpi2point mul] 0 setdash } bdef
/DD { [.5 dpi2point mul 4 dpi2point mul 6 dpi2point mul 4
  dpi2point mul] 0 setdash } bdef
% macros for lines and objects
/L {lineto stroke} bdef
/MP {3 1 roll moveto 1 sub {rlineto} repeat} bdef
/AP {{rlineto} repeat} bdef
/PDlw -1 def
/W {/PDlw currentlinewidth def setlinewidth} def
/PP {closepath eofill} bdef
/DP {closepath stroke} bdef
/MR {4 -2 roll moveto dup  0 exch rlineto exch 0 rlineto
  neg 0 exch rlineto closepath} bdef
/FR {MR stroke} bdef
/PR {MR fill} bdef
/L1i {{currentfile picstr readhexstring pop} image} bdef
/tMatrix matrix def
/MakeOval {newpath tMatrix currentmatrix pop translate scale
0 0 1 0 360 arc tMatrix setmatrix} bdef
/FO {MakeOval stroke} bdef
/PO {MakeOval fill} bdef
/PD {currentlinewidth 2 div 0 360 arc fill
   PDlw -1 eq not {PDlw w /PDlw -1 def} if} def
/FA {newpath tMatrix currentmatrix pop translate scale
  0 0 1 5 -2 roll arc tMatrix setmatrix stroke} bdef
/PA {newpath tMatrix currentmatrix pop	translate 0 0 moveto scale
  0 0 1 5 -2 roll arc closepath tMatrix setmatrix fill} bdef
/FAn {newpath tMatrix currentmatrix pop translate scale
  0 0 1 5 -2 roll arcn tMatrix setmatrix stroke} bdef
/PAn {newpath tMatrix currentmatrix pop translate 0 0 moveto scale
  0 0 1 5 -2 roll arcn closepath tMatrix setmatrix fill} bdef
/vradius 0 def /hradius 0 def /lry 0 def
/lrx 0 def /uly 0 def /ulx 0 def /rad 0 def
/MRR {/vradius xdef /hradius xdef /lry xdef /lrx xdef /uly xdef
  /ulx xdef newpath tMatrix currentmatrix pop ulx hradius add uly
  vradius add translate hradius vradius scale 0 0 1 180 270 arc 
  tMatrix setmatrix lrx hradius sub uly vradius add translate
  hradius vradius scale 0 0 1 270 360 arc tMatrix setmatrix
  lrx hradius sub lry vradius sub translate hradius vradius scale
  0 0 1 0 90 arc tMatrix setmatrix ulx hradius add lry vradius sub
  translate hradius vradius scale 0 0 1 90 180 arc tMatrix setmatrix
  closepath} bdef
/FRR {MRR stroke } bdef
/PRR {MRR fill } bdef
/MlrRR {/lry xdef /lrx xdef /uly xdef /ulx xdef /rad lry uly sub 2 div def
  newpath tMatrix currentmatrix pop ulx rad add uly rad add translate
  rad rad scale 0 0 1 90 270 arc tMatrix setmatrix lrx rad sub lry rad
  sub translate rad rad scale 0 0 1 270 90 arc tMatrix setmatrix
  closepath} bdef
/FlrRR {MlrRR stroke } bdef
/PlrRR {MlrRR fill } bdef
/MtbRR {/lry xdef /lrx xdef /uly xdef /ulx xdef /rad lrx ulx sub 2 div def
  newpath tMatrix currentmatrix pop ulx rad add uly rad add translate
  rad rad scale 0 0 1 180 360 arc tMatrix setmatrix lrx rad sub lry rad
  sub translate rad rad scale 0 0 1 0 180 arc tMatrix setmatrix
  closepath} bdef
/FtbRR {MtbRR stroke } bdef
/PtbRR {MtbRR fill } bdef
/stri 6 array def /dtri 6 array def
/smat 6 array def /dmat 6 array def
/tmat1 6 array def /tmat2 6 array def /dif 3 array def
/asub {/ind2 exch def /ind1 exch def dup dup
  ind1 get exch ind2 get sub exch } bdef
/tri_to_matrix {
  2 0 asub 3 1 asub 4 0 asub 5 1 asub
  dup 0 get exch 1 get 7 -1 roll astore } bdef
/compute_transform {
  dmat dtri tri_to_matrix tmat1 invertmatrix 
  smat stri tri_to_matrix tmat2 concatmatrix } bdef
/ds {stri astore pop} bdef
/dt {dtri astore pop} bdef
/db {2 copy /cols xdef /rows xdef mul dup 3 mul string
  currentfile 
  3 index 0 eq {/ASCIIHexDecode filter}
  {/ASCII85Decode filter 3 index 2 eq {/RunLengthDecode filter} if }
  ifelse exch readstring pop
  dup 0 3 index getinterval /rbmap xdef
  dup 2 index dup getinterval /gbmap xdef
  1 index dup 2 mul exch getinterval /bbmap xdef pop pop}bdef
/it {gs np dtri aload pop moveto lineto lineto cp c
  cols rows 8 compute_transform 
  rbmap gbmap bbmap true 3 colorimage gr}bdef
/il {newpath moveto lineto stroke}bdef
currentdict end def
%%EndProlog

%%BeginSetup
MathWorks begin

0 cap

end
%%EndSetup

%%Page: 1 1
%%BeginPageSetup
%%PageBoundingBox:  -422    74  1019   766
MathWorks begin
bpage
%%EndPageSetup

%%BeginObject: obj1
bplot

/dpi2point 12 def
portraitMode -5064 9192 csm

    0     0 17294  8293 rc
89 dict begin %Colortable dictionary
/c0 { 0.000000 0.000000 0.000000 sr} bdef
/c1 { 1.000000 1.000000 1.000000 sr} bdef
/c2 { 0.900000 0.000000 0.000000 sr} bdef
/c3 { 0.000000 0.820000 0.000000 sr} bdef
/c4 { 0.000000 0.000000 0.800000 sr} bdef
/c5 { 0.910000 0.820000 0.320000 sr} bdef
/c6 { 1.000000 0.260000 0.820000 sr} bdef
/c7 { 0.000000 0.820000 0.820000 sr} bdef
c0
1 j
1 sg
   0    0 17295 8294 rf
6 w
0 3109 5880 0 0 -3109 7955 3607 4 MP
PP
-5880 0 0 3109 5880 0 0 -3109 7955 3607 5 MP stroke
4 w
DO
0 sg
7955 3607 mt 7955  498 L
7955  498 mt 7955  498 L
8690 3607 mt 8690  498 L
8690  498 mt 8690  498 L
9425 3607 mt 9425  498 L
9425  498 mt 9425  498 L
10160 3607 mt 10160  498 L
10160  498 mt 10160  498 L
10895 3607 mt 10895  498 L
10895  498 mt 10895  498 L
11630 3607 mt 11630  498 L
11630  498 mt 11630  498 L
12365 3607 mt 12365  498 L
12365  498 mt 12365  498 L
13100 3607 mt 13100  498 L
13100  498 mt 13100  498 L
13835 3607 mt 13835  498 L
13835  498 mt 13835  498 L
7955 3607 mt 13835 3607 L
13835 3607 mt 13835 3607 L
7955 2985 mt 13835 2985 L
13835 2985 mt 13835 2985 L
7955 2363 mt 13835 2363 L
13835 2363 mt 13835 2363 L
7955 1741 mt 13835 1741 L
13835 1741 mt 13835 1741 L
7955 1119 mt 13835 1119 L
13835 1119 mt 13835 1119 L
7955  498 mt 13835  498 L
13835  498 mt 13835  498 L
SO
6 w
7955  498 mt 13835  498 L
7955 3607 mt 13835 3607 L
13835 3607 mt 13835  498 L
7955 3607 mt 7955  498 L
7955 3607 mt 13835 3607 L
7955 3607 mt 7955  498 L
7955 3607 mt 7955 3548 L
7955  498 mt 7955  556 L
%%IncludeResource: font Helvetica
/Helvetica /WindowsLatin1Encoding 216 FMSR

7835 3842 mt 
(10) s
8690 3607 mt 8690 3548 L
8690  498 mt 8690  556 L
8570 3842 mt 
(20) s
9425 3607 mt 9425 3548 L
9425  498 mt 9425  556 L
9305 3842 mt 
(30) s
10160 3607 mt 10160 3548 L
10160  498 mt 10160  556 L
10040 3842 mt 
(40) s
10895 3607 mt 10895 3548 L
10895  498 mt 10895  556 L
10775 3842 mt 
(50) s
11630 3607 mt 11630 3548 L
11630  498 mt 11630  556 L
11510 3842 mt 
(60) s
12365 3607 mt 12365 3548 L
12365  498 mt 12365  556 L
12245 3842 mt 
(70) s
13100 3607 mt 13100 3548 L
13100  498 mt 13100  556 L
12980 3842 mt 
(80) s
13835 3607 mt 13835 3548 L
13835  498 mt 13835  556 L
13715 3842 mt 
(90) s
7955 3607 mt 8013 3607 L
13835 3607 mt 13776 3607 L
7800 3687 mt 
(0) s
7955 2985 mt 8013 2985 L
13835 2985 mt 13776 2985 L
7620 3065 mt 
(0.2) s
7955 2363 mt 8013 2363 L
13835 2363 mt 13776 2363 L
7620 2443 mt 
(0.4) s
7955 1741 mt 8013 1741 L
13835 1741 mt 13776 1741 L
7620 1821 mt 
(0.6) s
7955 1119 mt 8013 1119 L
13835 1119 mt 13776 1119 L
7620 1199 mt 
(0.8) s
7955  498 mt 8013  498 L
13835  498 mt 13776  498 L
7800  578 mt 
(1) s
7955  498 mt 13835  498 L
7955 3607 mt 13835 3607 L
13835 3607 mt 13835  498 L
7955 3607 mt 7955  498 L
gs 7955 498 5881 3110 rc
24 w
/c8 { 0.000000 0.000000 1.000000 sr} bdef
c8
735 669 735 -72 735 -2538 735 2811 735 -2875 735 2422 735 -1362 735 141 
7955 2300 9 MP stroke
gr

24 w
c8
gs 7749 420 6293 3288 rc
0 j
0 -142 -142 0 0 142 142 0 7884 2229 5 MP
DP
0 -142 -142 0 0 142 142 0 8619 2370 5 MP
DP
0 -142 -142 0 0 142 142 0 9354 1008 5 MP
DP
0 -142 -142 0 0 142 142 0 10089 3430 5 MP
DP
0 -142 -142 0 0 142 142 0 10824 555 5 MP
DP
0 -142 -142 0 0 142 142 0 11559 3366 5 MP
DP
0 -142 -142 0 0 142 142 0 12294 828 5 MP
DP
0 -142 -142 0 0 142 142 0 13029 756 5 MP
DP
0 -142 -142 0 0 142 142 0 13764 1425 5 MP
DP
gs 7955 498 5881 3110 rc
gr
gr

0 sg
%%IncludeResource: font Helvetica
/Helvetica /WindowsLatin1Encoding 240 FMSR

9622  321 mt 
(Wilcoxon rank-sum test) s
gs 7955 498 5881 3110 rc
DO
/c9 { 1.000000 0.000000 0.000000 sr} bdef
c9
735 -779 735 1326 735 -853 735 -97 735 1214 735 -1318 735 938 735 -1500 
7955 3606 9 MP stroke
gr

c9
DO
gs 7749 1520 6293 2293 rc
SO
  90   90 7955 3606 FO
  90   90 8690 2106 FO
  90   90 9425 3044 FO
  90   90 10160 1726 FO
  90   90 10895 2940 FO
  90   90 11630 2843 FO
  90   90 12365 1990 FO
  90   90 13100 3316 FO
  90   90 13835 2537 FO
DO
gr

gs 7955 498 5881 3110 rc
DD
/c10 { 0.000000 1.000000 0.000000 sr} bdef
c10
735 2183 735 858 735 -2906 735 216 735 -362 735 17 735 -17 735 9 
7955 3596 9 MP stroke
gr

c10
DD
gs 7749 347 6293 3465 rc
SO
0 j
104 179 -208 0 104 -179 7955 3715 4 MP
DP
104 179 -208 0 104 -179 8690 3724 4 MP
DP
104 179 -208 0 104 -179 9425 3707 4 MP
DP
104 179 -208 0 104 -179 10160 3724 4 MP
DP
104 179 -208 0 104 -179 10895 3362 4 MP
DP
104 179 -208 0 104 -179 11630 3578 4 MP
DP
104 179 -208 0 104 -179 12365 672 4 MP
DP
104 179 -208 0 104 -179 13100 1530 4 MP
DP
104 179 -208 0 104 -179 13835 3713 4 MP
DP
DD
gs 7955 498 5881 3110 rc
DA
/c11 { 0.000000 0.000000 0.172414 sr} bdef
c11
735 -1782 735 1907 735 -1074 735 -980 735 -215 735 85 735 -143 735 -289 
7955 3606 9 MP stroke
gr

c11
DA
SO
7892 3543 mt 8018 3669 L
8018 3543 mt 7892 3669 L
8627 3254 mt 8753 3380 L
8753 3254 mt 8627 3380 L
9362 3111 mt 9488 3237 L
9488 3111 mt 9362 3237 L
10097 3196 mt 10223 3322 L
10223 3196 mt 10097 3322 L
10832 2981 mt 10958 3107 L
10958 2981 mt 10832 3107 L
11567 2001 mt 11693 2127 L
11693 2001 mt 11567 2127 L
12302  927 mt 12428 1053 L
12428  927 mt 12302 1053 L
13037 2834 mt 13163 2960 L
13163 2834 mt 13037 2960 L
13772 1052 mt 13898 1178 L
13898 1052 mt 13772 1178 L
DA
gr

c11
DA
gs 7955 498 5881 3110 rc
SO
/c12 { 1.000000 0.103448 0.724138 sr} bdef
c12
735 -256 735 -561 735 -94 735 -1 735 28 735 -28 735 128 735 -128 
7955 3606 9 MP stroke
gr

c12
SO
gs 7749 2488 6293 1325 rc
0 j
90 119 -90 119 -90 -119 90 -119 7955 3725 5 MP
DP
90 119 -90 119 -90 -119 90 -119 8690 3597 5 MP
DP
90 119 -90 119 -90 -119 90 -119 9425 3725 5 MP
DP
90 119 -90 119 -90 -119 90 -119 10160 3697 5 MP
DP
90 119 -90 119 -90 -119 90 -119 10895 3725 5 MP
DP
90 119 -90 119 -90 -119 90 -119 11630 3724 5 MP
DP
90 119 -90 119 -90 -119 90 -119 12365 3630 5 MP
DP
90 119 -90 119 -90 -119 90 -119 13100 3069 5 MP
DP
90 119 -90 119 -90 -119 90 -119 13835 2813 5 MP
DP
gr

gs 7955 498 5881 3110 rc
DO
/c13 { 0.000000 0.344828 0.000000 sr} bdef
c13
735 -1240 735 -265 735 245 735 -249 735 6 735 -4 735 -3 735 0 
7955 3606 9 MP stroke
gr

c13
DO
gs 7749 1890 6293 1923 rc
SO
7865 3606 mt 8045 3606 L
7955 3516 mt 7955 3696 L
8600 3606 mt 8780 3606 L
8690 3516 mt 8690 3696 L
9335 3603 mt 9515 3603 L
9425 3513 mt 9425 3693 L
10070 3599 mt 10250 3599 L
10160 3509 mt 10160 3689 L
10805 3605 mt 10985 3605 L
10895 3515 mt 10895 3695 L
11540 3356 mt 11720 3356 L
11630 3266 mt 11630 3446 L
12275 3601 mt 12455 3601 L
12365 3511 mt 12365 3691 L
13010 3336 mt 13190 3336 L
13100 3246 mt 13100 3426 L
13745 2096 mt 13925 2096 L
13835 2006 mt 13835 2186 L
7892 3543 mt 8018 3669 L
8018 3543 mt 7892 3669 L
8627 3543 mt 8753 3669 L
8753 3543 mt 8627 3669 L
9362 3540 mt 9488 3666 L
9488 3540 mt 9362 3666 L
10097 3536 mt 10223 3662 L
10223 3536 mt 10097 3662 L
10832 3542 mt 10958 3668 L
10958 3542 mt 10832 3668 L
11567 3293 mt 11693 3419 L
11693 3293 mt 11567 3419 L
12302 3538 mt 12428 3664 L
12428 3538 mt 12302 3664 L
13037 3273 mt 13163 3399 L
13163 3273 mt 13037 3399 L
13772 2033 mt 13898 2159 L
13898 2033 mt 13772 2159 L
DO
gr

gs 7955 498 5881 3110 rc
SO
6 w
gr

6 w
SO
1 sg
0 3110 5880 0 0 -3110 7955 7464 4 MP
PP
-5880 0 0 3110 5880 0 0 -3110 7955 7464 5 MP stroke
4 w
DO
0 sg
7955 7464 mt 7955 4354 L
7955 4354 mt 7955 4354 L
8690 7464 mt 8690 4354 L
8690 4354 mt 8690 4354 L
9425 7464 mt 9425 4354 L
9425 4354 mt 9425 4354 L
10160 7464 mt 10160 4354 L
10160 4354 mt 10160 4354 L
10895 7464 mt 10895 4354 L
10895 4354 mt 10895 4354 L
11630 7464 mt 11630 4354 L
11630 4354 mt 11630 4354 L
12365 7464 mt 12365 4354 L
12365 4354 mt 12365 4354 L
13100 7464 mt 13100 4354 L
13100 4354 mt 13100 4354 L
13835 7464 mt 13835 4354 L
13835 4354 mt 13835 4354 L
7955 7464 mt 13835 7464 L
13835 7464 mt 13835 7464 L
7955 6686 mt 13835 6686 L
13835 6686 mt 13835 6686 L
7955 5909 mt 13835 5909 L
13835 5909 mt 13835 5909 L
7955 5131 mt 13835 5131 L
13835 5131 mt 13835 5131 L
7955 4354 mt 13835 4354 L
13835 4354 mt 13835 4354 L
SO
6 w
7955 4354 mt 13835 4354 L
7955 7464 mt 13835 7464 L
13835 7464 mt 13835 4354 L
7955 7464 mt 7955 4354 L
7955 7464 mt 13835 7464 L
7955 7464 mt 7955 4354 L
7955 7464 mt 7955 7405 L
7955 4354 mt 7955 4412 L
%%IncludeResource: font Helvetica
/Helvetica /WindowsLatin1Encoding 216 FMSR

7835 7699 mt 
(10) s
8690 7464 mt 8690 7405 L
8690 4354 mt 8690 4412 L
8570 7699 mt 
(20) s
9425 7464 mt 9425 7405 L
9425 4354 mt 9425 4412 L
9305 7699 mt 
(30) s
10160 7464 mt 10160 7405 L
10160 4354 mt 10160 4412 L
10040 7699 mt 
(40) s
10895 7464 mt 10895 7405 L
10895 4354 mt 10895 4412 L
10775 7699 mt 
(50) s
11630 7464 mt 11630 7405 L
11630 4354 mt 11630 4412 L
11510 7699 mt 
(60) s
12365 7464 mt 12365 7405 L
12365 4354 mt 12365 4412 L
12245 7699 mt 
(70) s
13100 7464 mt 13100 7405 L
13100 4354 mt 13100 4412 L
12980 7699 mt 
(80) s
13835 7464 mt 13835 7405 L
13835 4354 mt 13835 4412 L
13715 7699 mt 
(90) s
7955 7464 mt 8013 7464 L
13835 7464 mt 13776 7464 L
7800 7544 mt 
(0) s
7955 6686 mt 8013 6686 L
13835 6686 mt 13776 6686 L
7620 6766 mt 
(0.2) s
7955 5909 mt 8013 5909 L
13835 5909 mt 13776 5909 L
7620 5989 mt 
(0.4) s
7955 5131 mt 8013 5131 L
13835 5131 mt 13776 5131 L
7620 5211 mt 
(0.6) s
7955 4354 mt 8013 4354 L
13835 4354 mt 13776 4354 L
7620 4434 mt 
(0.8) s
7955 4354 mt 13835 4354 L
7955 7464 mt 13835 7464 L
13835 7464 mt 13835 4354 L
7955 7464 mt 7955 4354 L
gs 7955 4354 5881 3111 rc
24 w
c8
735 52 735 -295 735 0 735 0 735 0 735 0 735 0 735 0 
7955 7463 9 MP stroke
gr

24 w
c8
gs 7749 6962 6293 708 rc
0 j
0 -142 -142 0 0 142 142 0 7884 7392 5 MP
DP
0 -142 -142 0 0 142 142 0 8619 7392 5 MP
DP
0 -142 -142 0 0 142 142 0 9354 7392 5 MP
DP
0 -142 -142 0 0 142 142 0 10089 7392 5 MP
DP
0 -142 -142 0 0 142 142 0 10824 7392 5 MP
DP
0 -142 -142 0 0 142 142 0 11559 7392 5 MP
DP
0 -142 -142 0 0 142 142 0 12294 7392 5 MP
DP
0 -142 -142 0 0 142 142 0 13029 7097 5 MP
DP
0 -142 -142 0 0 142 142 0 13764 7149 5 MP
DP
gr

gs 7955 4354 5881 3111 rc
gr

0 sg
%%IncludeResource: font Helvetica
/Helvetica /WindowsLatin1Encoding 240 FMSR

9622 4177 mt 
(Wilcoxon rank-sum test) s
9705 7930 mt 
(Columns removed \(%\)) s
gs 7955 4354 5881 3111 rc
DO
c9
735 -57 735 -2 735 0 735 0 735 0 735 0 735 0 735 0 
7955 7463 9 MP stroke
gr

c9
DO
gs 7749 7198 6293 472 rc
SO
  90   90 7955 7463 FO
  90   90 8690 7463 FO
  90   90 9425 7463 FO
  90   90 10160 7463 FO
  90   90 10895 7463 FO
  90   90 11630 7463 FO
  90   90 12365 7463 FO
  90   90 13100 7461 FO
  90   90 13835 7404 FO
DO
gr

gs 7955 4354 5881 3111 rc
DD
c10
735 -703 735 0 735 0 735 0 735 0 735 0 735 0 735 0 
7955 7463 9 MP stroke
gr

c10
DD
gs 7749 6554 6293 1116 rc
SO
0 j
104 179 -208 0 104 -179 7955 7582 4 MP
DP
104 179 -208 0 104 -179 8690 7582 4 MP
DP
104 179 -208 0 104 -179 9425 7582 4 MP
DP
104 179 -208 0 104 -179 10160 7582 4 MP
DP
104 179 -208 0 104 -179 10895 7582 4 MP
DP
104 179 -208 0 104 -179 11630 7582 4 MP
DP
104 179 -208 0 104 -179 12365 7582 4 MP
DP
104 179 -208 0 104 -179 13100 7582 4 MP
DP
104 179 -208 0 104 -179 13835 6879 4 MP
DP
DD
gr

gs 7955 4354 5881 3111 rc
DA
c11
735 836 735 -839 735 0 735 0 735 0 735 0 735 0 735 0 
7955 7463 9 MP stroke
gr

c11
DA
gs 7749 6418 6293 1252 rc
SO
7892 7400 mt 8018 7526 L
8018 7400 mt 7892 7526 L
8627 7400 mt 8753 7526 L
8753 7400 mt 8627 7526 L
9362 7400 mt 9488 7526 L
9488 7400 mt 9362 7526 L
10097 7400 mt 10223 7526 L
10223 7400 mt 10097 7526 L
10832 7400 mt 10958 7526 L
10958 7400 mt 10832 7526 L
11567 7400 mt 11693 7526 L
11693 7400 mt 11567 7526 L
12302 7400 mt 12428 7526 L
12428 7400 mt 12302 7526 L
13037 6561 mt 13163 6687 L
13163 6561 mt 13037 6687 L
13772 7397 mt 13898 7523 L
13898 7397 mt 13772 7523 L
DA
gr

gs 7955 4354 5881 3111 rc
SO
c12
735 -2205 735 -205 735 0 735 0 735 0 735 0 735 0 735 0 
7955 7463 9 MP stroke
gr

c12
SO
gs 7749 4847 6293 2823 rc
0 j
90 119 -90 119 -90 -119 90 -119 7955 7582 5 MP
DP
90 119 -90 119 -90 -119 90 -119 8690 7582 5 MP
DP
90 119 -90 119 -90 -119 90 -119 9425 7582 5 MP
DP
90 119 -90 119 -90 -119 90 -119 10160 7582 5 MP
DP
90 119 -90 119 -90 -119 90 -119 10895 7582 5 MP
DP
90 119 -90 119 -90 -119 90 -119 11630 7582 5 MP
DP
90 119 -90 119 -90 -119 90 -119 12365 7582 5 MP
DP
90 119 -90 119 -90 -119 90 -119 13100 7377 5 MP
DP
90 119 -90 119 -90 -119 90 -119 13835 5172 5 MP
DP
gr

gs 7955 4354 5881 3111 rc
DO
c13
735 109 735 -213 735 -12 735 -20 735 0 735 0 735 0 735 0 
7955 7463 9 MP stroke
gr

c13
DO
gs 7749 7012 6293 658 rc
SO
7865 7463 mt 8045 7463 L
7955 7373 mt 7955 7553 L
8600 7463 mt 8780 7463 L
8690 7373 mt 8690 7553 L
9335 7463 mt 9515 7463 L
9425 7373 mt 9425 7553 L
10070 7463 mt 10250 7463 L
10160 7373 mt 10160 7553 L
10805 7463 mt 10985 7463 L
10895 7373 mt 10895 7553 L
11540 7443 mt 11720 7443 L
11630 7353 mt 11630 7533 L
12275 7431 mt 12455 7431 L
12365 7341 mt 12365 7521 L
13010 7218 mt 13190 7218 L
13100 7128 mt 13100 7308 L
13745 7327 mt 13925 7327 L
13835 7237 mt 13835 7417 L
7892 7400 mt 8018 7526 L
8018 7400 mt 7892 7526 L
8627 7400 mt 8753 7526 L
8753 7400 mt 8627 7526 L
9362 7400 mt 9488 7526 L
9488 7400 mt 9362 7526 L
10097 7400 mt 10223 7526 L
10223 7400 mt 10097 7526 L
10832 7400 mt 10958 7526 L
10958 7400 mt 10832 7526 L
11567 7380 mt 11693 7506 L
11693 7380 mt 11567 7506 L
12302 7368 mt 12428 7494 L
12428 7368 mt 12302 7494 L
13037 7155 mt 13163 7281 L
13163 7155 mt 13037 7281 L
13772 7264 mt 13898 7390 L
13898 7264 mt 13772 7390 L
DO
gr

gs 7955 4354 5881 3111 rc
SO
6 w
gr

6 w
SO
1 sg
0 3109 5880 0 0 -3109 1038 3607 4 MP
PP
-5880 0 0 3109 5880 0 0 -3109 1038 3607 5 MP stroke
4 w
DO
0 sg
1038 3607 mt 1038  498 L
1038  498 mt 1038  498 L
1773 3607 mt 1773  498 L
1773  498 mt 1773  498 L
2508 3607 mt 2508  498 L
2508  498 mt 2508  498 L
3243 3607 mt 3243  498 L
3243  498 mt 3243  498 L
3978 3607 mt 3978  498 L
3978  498 mt 3978  498 L
4713 3607 mt 4713  498 L
4713  498 mt 4713  498 L
5448 3607 mt 5448  498 L
5448  498 mt 5448  498 L
6183 3607 mt 6183  498 L
6183  498 mt 6183  498 L
6918 3607 mt 6918  498 L
6918  498 mt 6918  498 L
1038 3607 mt 6918 3607 L
6918 3607 mt 6918 3607 L
1038 2829 mt 6918 2829 L
6918 2829 mt 6918 2829 L
1038 2052 mt 6918 2052 L
6918 2052 mt 6918 2052 L
1038 1275 mt 6918 1275 L
6918 1275 mt 6918 1275 L
1038  498 mt 6918  498 L
6918  498 mt 6918  498 L
SO
6 w
1038  498 mt 6918  498 L
1038 3607 mt 6918 3607 L
6918 3607 mt 6918  498 L
1038 3607 mt 1038  498 L
1038 3607 mt 6918 3607 L
1038 3607 mt 1038  498 L
1038 3607 mt 1038 3548 L
1038  498 mt 1038  556 L
%%IncludeResource: font Helvetica
/Helvetica /WindowsLatin1Encoding 216 FMSR

 918 3842 mt 
(10) s
1773 3607 mt 1773 3548 L
1773  498 mt 1773  556 L
1653 3842 mt 
(20) s
2508 3607 mt 2508 3548 L
2508  498 mt 2508  556 L
2388 3842 mt 
(30) s
3243 3607 mt 3243 3548 L
3243  498 mt 3243  556 L
3123 3842 mt 
(40) s
3978 3607 mt 3978 3548 L
3978  498 mt 3978  556 L
3858 3842 mt 
(50) s
4713 3607 mt 4713 3548 L
4713  498 mt 4713  556 L
4593 3842 mt 
(60) s
5448 3607 mt 5448 3548 L
5448  498 mt 5448  556 L
5328 3842 mt 
(70) s
6183 3607 mt 6183 3548 L
6183  498 mt 6183  556 L
6063 3842 mt 
(80) s
6918 3607 mt 6918 3548 L
6918  498 mt 6918  556 L
6798 3842 mt 
(90) s
1038 3607 mt 1096 3607 L
6918 3607 mt 6859 3607 L
 703 3687 mt 
(0.8) s
1038 2829 mt 1096 2829 L
6918 2829 mt 6859 2829 L
 883 2909 mt 
(1) s
1038 2052 mt 1096 2052 L
6918 2052 mt 6859 2052 L
 703 2132 mt 
(1.2) s
1038 1275 mt 1096 1275 L
6918 1275 mt 6859 1275 L
 703 1355 mt 
(1.4) s
1038  498 mt 1096  498 L
6918  498 mt 6859  498 L
 703  578 mt 
(1.6) s
1038  498 mt 6918  498 L
1038 3607 mt 6918 3607 L
6918 3607 mt 6918  498 L
1038 3607 mt 1038  498 L
gs 1038 498 5881 3110 rc
24 w
c8
735 295 735 -66 735 511 735 -38 735 -210 735 -546 735 403 735 173 
1038 2632 9 MP stroke
gr

24 w
c8
gs 832 2208 6293 1207 rc
0 j
0 -142 -142 0 0 142 142 0 967 2561 5 MP
DP
0 -142 -142 0 0 142 142 0 1702 2734 5 MP
DP
0 -142 -142 0 0 142 142 0 2437 3137 5 MP
DP
0 -142 -142 0 0 142 142 0 3172 2591 5 MP
DP
0 -142 -142 0 0 142 142 0 3907 2381 5 MP
DP
0 -142 -142 0 0 142 142 0 4642 2343 5 MP
DP
0 -142 -142 0 0 142 142 0 5377 2854 5 MP
DP
0 -142 -142 0 0 142 142 0 6112 2788 5 MP
DP
0 -142 -142 0 0 142 142 0 6847 3083 5 MP
DP
gr

gs 1038 498 5881 3110 rc
gr

0 sg
%%IncludeResource: font Helvetica
/Helvetica /WindowsLatin1Encoding 240 FMSR

2204  212 mt 
(Time to reach feasible solution Q) s
%%IncludeResource: font Helvetica
/Helvetica /WindowsLatin1Encoding 192 FMSR

5700  332 mt 
(t) s
gs 1038 498 5881 3110 rc
DO
c9
735 1040 735 -581 735 427 735 -144 735 -236 735 563 735 -76 735 787 
1038 1555 9 MP stroke
gr

c9
DO
gs 832 1349 6293 2193 rc
SO
  90   90 1038 1555 FO
  90   90 1773 2342 FO
  90   90 2508 2266 FO
  90   90 3243 2829 FO
  90   90 3978 2593 FO
  90   90 4713 2449 FO
  90   90 5448 2876 FO
  90   90 6183 2295 FO
  90   90 6918 3335 FO
DO
gr

gs 1038 498 5881 3110 rc
DD
c10
735 -837 735 -602 735 1012 735 -344 735 329 735 68 735 589 735 -498 
1038 2115 9 MP stroke
gr

c10
DD
gs 832 1411 6293 2067 rc
SO
0 j
104 179 -208 0 104 -179 1038 2234 4 MP
DP
104 179 -208 0 104 -179 1773 1736 4 MP
DP
104 179 -208 0 104 -179 2508 2325 4 MP
DP
104 179 -208 0 104 -179 3243 2393 4 MP
DP
104 179 -208 0 104 -179 3978 2722 4 MP
DP
104 179 -208 0 104 -179 4713 2378 4 MP
DP
104 179 -208 0 104 -179 5448 3390 4 MP
DP
104 179 -208 0 104 -179 6183 2788 4 MP
DP
104 179 -208 0 104 -179 6918 1951 4 MP
DP
DD
gr

gs 1038 498 5881 3110 rc
DA
c11
735 388 735 -102 735 135 735 -421 735 -129 735 703 735 -186 735 868 
1038 1573 9 MP stroke
gr

c11
DA
gs 832 1367 6293 1798 rc
SO
 975 1510 mt 1101 1636 L
1101 1510 mt  975 1636 L
1710 2378 mt 1836 2504 L
1836 2378 mt 1710 2504 L
2445 2192 mt 2571 2318 L
2571 2192 mt 2445 2318 L
3180 2895 mt 3306 3021 L
3306 2895 mt 3180 3021 L
3915 2766 mt 4041 2892 L
4041 2766 mt 3915 2892 L
4650 2345 mt 4776 2471 L
4776 2345 mt 4650 2471 L
5385 2480 mt 5511 2606 L
5511 2480 mt 5385 2606 L
6120 2378 mt 6246 2504 L
6246 2378 mt 6120 2504 L
6855 2766 mt 6981 2892 L
6981 2766 mt 6855 2892 L
DA
gr

gs 1038 498 5881 3110 rc
SO
c12
735 -633 735 721 735 195 735 425 735 124 735 627 735 -993 735 291 
1038 1878 9 MP stroke
gr

c12
SO
gs 832 970 6293 2505 rc
0 j
90 119 -90 119 -90 -119 90 -119 1038 1997 5 MP
DP
90 119 -90 119 -90 -119 90 -119 1773 2288 5 MP
DP
90 119 -90 119 -90 -119 90 -119 2508 1295 5 MP
DP
90 119 -90 119 -90 -119 90 -119 3243 1922 5 MP
DP
90 119 -90 119 -90 -119 90 -119 3978 2046 5 MP
DP
90 119 -90 119 -90 -119 90 -119 4713 2471 5 MP
DP
90 119 -90 119 -90 -119 90 -119 5448 2666 5 MP
DP
90 119 -90 119 -90 -119 90 -119 6183 3387 5 MP
DP
90 119 -90 119 -90 -119 90 -119 6918 2754 5 MP
DP
gr

gs 1038 498 5881 3110 rc
DO
c13
735 997 735 -116 735 86 735 -211 735 310 735 -310 735 349 735 619 
1038 1239 9 MP stroke
gr

c13
DO
gs 832 1033 6293 2137 rc
SO
 948 1239 mt 1128 1239 L
1038 1149 mt 1038 1329 L
1683 1858 mt 1863 1858 L
1773 1768 mt 1773 1948 L
2418 2207 mt 2598 2207 L
2508 2117 mt 2508 2297 L
3153 1897 mt 3333 1897 L
3243 1807 mt 3243 1987 L
3888 2207 mt 4068 2207 L
3978 2117 mt 3978 2297 L
4623 1996 mt 4803 1996 L
4713 1906 mt 4713 2086 L
5358 2082 mt 5538 2082 L
5448 1992 mt 5448 2172 L
6093 1966 mt 6273 1966 L
6183 1876 mt 6183 2056 L
6828 2963 mt 7008 2963 L
6918 2873 mt 6918 3053 L
 975 1176 mt 1101 1302 L
1101 1176 mt  975 1302 L
1710 1795 mt 1836 1921 L
1836 1795 mt 1710 1921 L
2445 2144 mt 2571 2270 L
2571 2144 mt 2445 2270 L
3180 1834 mt 3306 1960 L
3306 1834 mt 3180 1960 L
3915 2144 mt 4041 2270 L
4041 2144 mt 3915 2270 L
4650 1933 mt 4776 2059 L
4776 1933 mt 4650 2059 L
5385 2019 mt 5511 2145 L
5511 2019 mt 5385 2145 L
6120 1903 mt 6246 2029 L
6246 1903 mt 6120 2029 L
6855 2900 mt 6981 3026 L
6981 2900 mt 6855 3026 L
DO
gr

gs 1038 498 5881 3110 rc
SO
6 w
gr

6 w
SO
1 sg
0 3110 5880 0 0 -3110 1038 7464 4 MP
PP
-5880 0 0 3110 5880 0 0 -3110 1038 7464 5 MP stroke
4 w
DO
0 sg
1038 7464 mt 1038 4354 L
1038 4354 mt 1038 4354 L
1773 7464 mt 1773 4354 L
1773 4354 mt 1773 4354 L
2508 7464 mt 2508 4354 L
2508 4354 mt 2508 4354 L
3243 7464 mt 3243 4354 L
3243 4354 mt 3243 4354 L
3978 7464 mt 3978 4354 L
3978 4354 mt 3978 4354 L
4713 7464 mt 4713 4354 L
4713 4354 mt 4713 4354 L
5448 7464 mt 5448 4354 L
5448 4354 mt 5448 4354 L
6183 7464 mt 6183 4354 L
6183 4354 mt 6183 4354 L
6918 7464 mt 6918 4354 L
6918 4354 mt 6918 4354 L
1038 7464 mt 6918 7464 L
6918 7464 mt 6918 7464 L
1038 6427 mt 6918 6427 L
6918 6427 mt 6918 6427 L
1038 5390 mt 6918 5390 L
6918 5390 mt 6918 5390 L
1038 4354 mt 6918 4354 L
6918 4354 mt 6918 4354 L
SO
6 w
1038 4354 mt 6918 4354 L
1038 7464 mt 6918 7464 L
6918 7464 mt 6918 4354 L
1038 7464 mt 1038 4354 L
1038 7464 mt 6918 7464 L
1038 7464 mt 1038 4354 L
1038 7464 mt 1038 7405 L
1038 4354 mt 1038 4412 L
%%IncludeResource: font Helvetica
/Helvetica /WindowsLatin1Encoding 216 FMSR

 918 7699 mt 
(10) s
1773 7464 mt 1773 7405 L
1773 4354 mt 1773 4412 L
1653 7699 mt 
(20) s
2508 7464 mt 2508 7405 L
2508 4354 mt 2508 4412 L
2388 7699 mt 
(30) s
3243 7464 mt 3243 7405 L
3243 4354 mt 3243 4412 L
3123 7699 mt 
(40) s
3978 7464 mt 3978 7405 L
3978 4354 mt 3978 4412 L
3858 7699 mt 
(50) s
4713 7464 mt 4713 7405 L
4713 4354 mt 4713 4412 L
4593 7699 mt 
(60) s
5448 7464 mt 5448 7405 L
5448 4354 mt 5448 4412 L
5328 7699 mt 
(70) s
6183 7464 mt 6183 7405 L
6183 4354 mt 6183 4412 L
6063 7699 mt 
(80) s
6918 7464 mt 6918 7405 L
6918 4354 mt 6918 4412 L
6798 7699 mt 
(90) s
1038 7464 mt 1096 7464 L
6918 7464 mt 6859 7464 L
 583 7544 mt 
(0.85) s
1038 6427 mt 1096 6427 L
6918 6427 mt 6859 6427 L
 703 6507 mt 
(0.9) s
1038 5390 mt 1096 5390 L
6918 5390 mt 6859 5390 L
 583 5470 mt 
(0.95) s
1038 4354 mt 1096 4354 L
6918 4354 mt 6859 4354 L
 883 4434 mt 
(1) s
1038 4354 mt 6918 4354 L
1038 7464 mt 6918 7464 L
6918 7464 mt 6918 4354 L
1038 7464 mt 1038 4354 L
gs 1038 4354 5881 3111 rc
24 w
c8
735 -109 735 -653 735 107 735 -173 735 -551 735 -152 735 -6 735 -246 
1038 6397 9 MP stroke
gr

24 w
c8
gs 832 4408 6293 2196 rc
0 j
0 -142 -142 0 0 142 142 0 967 6326 5 MP
DP
0 -142 -142 0 0 142 142 0 1702 6080 5 MP
DP
0 -142 -142 0 0 142 142 0 2437 6074 5 MP
DP
0 -142 -142 0 0 142 142 0 3172 5922 5 MP
DP
0 -142 -142 0 0 142 142 0 3907 5371 5 MP
DP
0 -142 -142 0 0 142 142 0 4642 5198 5 MP
DP
0 -142 -142 0 0 142 142 0 5377 5305 5 MP
DP
0 -142 -142 0 0 142 142 0 6112 4652 5 MP
DP
0 -142 -142 0 0 142 142 0 6847 4543 5 MP
DP
gr

gs 1038 4354 5881 3111 rc
gr

0 sg
%%IncludeResource: font Helvetica
/Helvetica /WindowsLatin1Encoding 240 FMSR

2720 4068 mt 
(Final solution quality Q) s
%%IncludeResource: font Helvetica
/Helvetica /WindowsLatin1Encoding 192 FMSR

5147 4188 mt 
(s) s
%%IncludeResource: font Helvetica
/Helvetica /WindowsLatin1Encoding 240 FMSR

2788 7930 mt 
(Columns removed \(%\)) s
gs 1038 4354 5881 3111 rc
DO
c9
735 -216 735 -320 735 -120 735 -648 735 -136 735 -159 735 -63 735 -240 
1038 6630 9 MP stroke
gr

c9
DO
gs 832 4522 6293 2315 rc
SO
  90   90 1038 6630 FO
  90   90 1773 6390 FO
  90   90 2508 6327 FO
  90   90 3243 6168 FO
  90   90 3978 6032 FO
  90   90 4713 5384 FO
  90   90 5448 5264 FO
  90   90 6183 4944 FO
  90   90 6918 4728 FO
DO
gr

gs 1038 4354 5881 3111 rc
DD
c10
735 -459 735 -381 735 -217 735 -296 735 -194 735 -240 735 -534 735 -96 
1038 7029 9 MP stroke
gr

c10
DD
gs 832 4406 6293 2830 rc
SO
0 j
104 179 -208 0 104 -179 1038 7148 4 MP
DP
104 179 -208 0 104 -179 1773 7052 4 MP
DP
104 179 -208 0 104 -179 2508 6518 4 MP
DP
104 179 -208 0 104 -179 3243 6278 4 MP
DP
104 179 -208 0 104 -179 3978 6084 4 MP
DP
104 179 -208 0 104 -179 4713 5788 4 MP
DP
104 179 -208 0 104 -179 5448 5571 4 MP
DP
104 179 -208 0 104 -179 6183 5190 4 MP
DP
104 179 -208 0 104 -179 6918 4731 4 MP
DP
DD
gr

gs 1038 4354 5881 3111 rc
DA
c11
735 321 735 -866 735 -334 735 -129 735 -138 735 -425 735 -272 735 -456 
1038 7144 9 MP stroke
gr

c11
DA
gs 832 4318 6293 3033 rc
SO
 975 7081 mt 1101 7207 L
1101 7081 mt  975 7207 L
1710 6625 mt 1836 6751 L
1836 6625 mt 1710 6751 L
2445 6353 mt 2571 6479 L
2571 6353 mt 2445 6479 L
3180 5928 mt 3306 6054 L
3306 5928 mt 3180 6054 L
3915 5790 mt 4041 5916 L
4041 5790 mt 3915 5916 L
4650 5661 mt 4776 5787 L
4776 5661 mt 4650 5787 L
5385 5327 mt 5511 5453 L
5511 5327 mt 5385 5453 L
6120 4461 mt 6246 4587 L
6246 4461 mt 6120 4587 L
6855 4782 mt 6981 4908 L
6981 4782 mt 6855 4908 L
DA
gr

gs 1038 4354 5881 3111 rc
SO
c12
735 -207 735 -551 735 -111 735 -384 735 -276 735 -188 735 -552 735 -271 
1038 6985 9 MP stroke
gr

c12
SO
gs 832 4239 6293 2953 rc
0 j
90 119 -90 119 -90 -119 90 -119 1038 7104 5 MP
DP
90 119 -90 119 -90 -119 90 -119 1773 6833 5 MP
DP
90 119 -90 119 -90 -119 90 -119 2508 6281 5 MP
DP
90 119 -90 119 -90 -119 90 -119 3243 6093 5 MP
DP
90 119 -90 119 -90 -119 90 -119 3978 5817 5 MP
DP
90 119 -90 119 -90 -119 90 -119 4713 5433 5 MP
DP
90 119 -90 119 -90 -119 90 -119 5448 5322 5 MP
DP
90 119 -90 119 -90 -119 90 -119 6183 4771 5 MP
DP
90 119 -90 119 -90 -119 90 -119 6918 4564 5 MP
DP
gr

gs 1038 4354 5881 3111 rc
DO
c13
735 106 735 -260 735 -44 735 -555 735 -179 735 -239 735 -401 735 -260 
1038 6556 9 MP stroke
gr

c13
DO
gs 832 4412 6293 2351 rc
SO
 948 6556 mt 1128 6556 L
1038 6466 mt 1038 6646 L
1683 6296 mt 1863 6296 L
1773 6206 mt 1773 6386 L
2418 5895 mt 2598 5895 L
2508 5805 mt 2508 5985 L
3153 5656 mt 3333 5656 L
3243 5566 mt 3243 5746 L
3888 5477 mt 4068 5477 L
3978 5387 mt 3978 5567 L
4623 4922 mt 4803 4922 L
4713 4832 mt 4713 5012 L
5358 4878 mt 5538 4878 L
5448 4788 mt 5448 4968 L
6093 4618 mt 6273 4618 L
6183 4528 mt 6183 4708 L
6828 4724 mt 7008 4724 L
6918 4634 mt 6918 4814 L
 975 6493 mt 1101 6619 L
1101 6493 mt  975 6619 L
1710 6233 mt 1836 6359 L
1836 6233 mt 1710 6359 L
2445 5832 mt 2571 5958 L
2571 5832 mt 2445 5958 L
3180 5593 mt 3306 5719 L
3306 5593 mt 3180 5719 L
3915 5414 mt 4041 5540 L
4041 5414 mt 3915 5540 L
4650 4859 mt 4776 4985 L
4776 4859 mt 4650 4985 L
5385 4815 mt 5511 4941 L
5511 4815 mt 5385 4941 L
6120 4555 mt 6246 4681 L
6246 4555 mt 6120 4681 L
6855 4661 mt 6981 4787 L
6981 4661 mt 6855 4787 L
DO
gr

gs 1038 4354 5881 3111 rc
gr

0 sg
%%IncludeResource: font Helvetica
/Helvetica /WindowsLatin1Encoding 120 FMSR

1021 7507 mt 
( ) s
6902 4396 mt 
( ) s
SO
6 w
1 sg
0 1644 1296 0 0 -1644 13992 2105 4 MP
PP
-1296 0 0 1644 1296 0 0 -1644 13992 2105 5 MP stroke
4 w
DO
SO
6 w
0 sg
13992  461 mt 15288  461 L
13992 2105 mt 15288 2105 L
15288 2105 mt 15288  461 L
13992 2105 mt 13992  461 L
13992 2105 mt 15288 2105 L
13992 2105 mt 13992  461 L
13992  461 mt 15288  461 L
13992 2105 mt 15288 2105 L
15288 2105 mt 15288  461 L
13992 2105 mt 13992  461 L
%%IncludeResource: font Helvetica
/Helvetica /WindowsLatin1Encoding 216 FMSR

14460  693 mt 
(scp41) s
gs 13992 461 1297 1645 rc
24 w
c8
360 0 14064 615 2 MP stroke
gr

24 w
c8
gs 14038 409 413 413 rc
0 j
0 -142 -142 0 0 142 142 0 14173 544 5 MP
DP
gr

gs 13992 461 1297 1645 rc
gr

0 sg
14460  960 mt 
(scp63) s
gs 13992 461 1297 1645 rc
DO
c9
360 0 14064 882 2 MP stroke
SO
gs 14038 676 413 413 rc
  90   90 14244  882 FO
gr

gr

c9
0 sg
14460 1227 mt 
(scpa5) s
gs 13992 461 1297 1645 rc
DD
c10
360 0 14064 1149 2 MP stroke
SO
gs 14038 943 413 413 rc
0 j
104 179 -208 0 104 -179 14244 1268 4 MP
DP
gr

gr

c10
0 sg
14460 1494 mt 
(scpb4) s
gs 13992 461 1297 1645 rc
DA
c11
360 0 14064 1416 2 MP stroke
SO
gs 14038 1210 413 413 rc
14181 1353 mt 14307 1479 L
14307 1353 mt 14181 1479 L
gr

gr

c11
0 sg
14460 1761 mt 
(scpd2) s
gs 13992 461 1297 1645 rc
c12
360 0 14064 1683 2 MP stroke
gs 14038 1477 413 413 rc
0 j
90 119 -90 119 -90 -119 90 -119 14244 1802 5 MP
DP
gr

gr

c12
0 sg
14460 2028 mt 
(scpnre1) s
gs 13992 461 1297 1645 rc
DO
c13
360 0 14064 1950 2 MP stroke
SO
gr

c13
gs 14038 1744 413 413 rc
14154 1950 mt 14334 1950 L
14244 1860 mt 14244 2040 L
14181 1887 mt 14307 2013 L
14307 1887 mt 14181 2013 L
gr

gs 13992 461 1297 1645 rc
6 w
gr

6 w

end %%Color Dict

eplot
%%EndObject

epage
end

showpage

%%Trailer
%%EOF
