%!PS-Adobe-3.0 EPSF-3.0
%%Creator: MATLAB, The MathWorks, Inc. Version 8.2.0.701 (R2013b). Operating System: Microsoft Windows 8.
%%Title: C:\Users\Ayush\Desktop\gecco\Swap.eps
%%CreationDate: 04/10/2015  23:14:35
%%DocumentNeededFonts: Helvetica
%%DocumentProcessColors: Cyan Magenta Yellow Black
%%LanguageLevel: 2
%%Pages: 1
%%BoundingBox:  -422    74  1019   766
%%EndComments

%%BeginProlog
% MathWorks dictionary
/MathWorks 160 dict begin
% definition operators
/bdef {bind def} bind def
/ldef {load def} bind def
/xdef {exch def} bdef
/xstore {exch store} bdef
% operator abbreviations
/c  /clip ldef
/cc /concat ldef
/cp /closepath ldef
/gr /grestore ldef
/gs /gsave ldef
/mt /moveto ldef
/np /newpath ldef
/cm /currentmatrix ldef
/sm /setmatrix ldef
/rm /rmoveto ldef
/rl /rlineto ldef
/s {show newpath} bdef
/sc {setcmykcolor} bdef
/sr /setrgbcolor ldef
/sg /setgray ldef
/w /setlinewidth ldef
/j /setlinejoin ldef
/cap /setlinecap ldef
/rc {rectclip} bdef
/rf {rectfill} bdef
% page state control
/pgsv () def
/bpage {/pgsv save def} bdef
/epage {pgsv restore} bdef
/bplot /gsave ldef
/eplot {stroke grestore} bdef
% orientation switch
/portraitMode 0 def /landscapeMode 1 def /rotateMode 2 def
% coordinate system mappings
/dpi2point 0 def
% font control
/FontSize 0 def
/FMS {/FontSize xstore findfont [FontSize 0 0 FontSize neg 0 0]
  makefont setfont} bdef
/ISOLatin1Encoding where {pop /WindowsLatin1Encoding 256 array bdef
ISOLatin1Encoding WindowsLatin1Encoding copy pop
/.notdef/.notdef/quotesinglbase/florin/quotedblbase/ellipsis/dagger
/daggerdbl/circumflex/perthousand/Scaron/guilsinglleft/OE/.notdef/.notdef
/.notdef/.notdef/quoteleft/quoteright/quotedblleft/quotedblright/bullet
/endash/emdash/tilde/trademark/scaron/guilsinglright/oe/.notdef/.notdef
/Ydieresis WindowsLatin1Encoding 128 32 getinterval astore pop}
{/WindowsLatin1Encoding StandardEncoding bdef} ifelse
/reencode {exch dup where {pop load} {pop StandardEncoding} ifelse
  exch dup 3 1 roll findfont dup length dict begin
  { 1 index /FID ne {def}{pop pop} ifelse } forall
  /Encoding exch def currentdict end definefont pop} bdef
/isroman {findfont /CharStrings get /Agrave known} bdef
/FMSR {3 1 roll 1 index dup isroman {reencode} {pop pop} ifelse
  exch FMS} bdef
/csm {1 dpi2point div -1 dpi2point div scale neg translate
 dup landscapeMode eq {pop -90 rotate}
  {rotateMode eq {90 rotate} if} ifelse} bdef
% line types: solid, dotted, dashed, dotdash
/SO { [] 0 setdash } bdef
/DO { [.5 dpi2point mul 4 dpi2point mul] 0 setdash } bdef
/DA { [6 dpi2point mul] 0 setdash } bdef
/DD { [.5 dpi2point mul 4 dpi2point mul 6 dpi2point mul 4
  dpi2point mul] 0 setdash } bdef
% macros for lines and objects
/L {lineto stroke} bdef
/MP {3 1 roll moveto 1 sub {rlineto} repeat} bdef
/AP {{rlineto} repeat} bdef
/PDlw -1 def
/W {/PDlw currentlinewidth def setlinewidth} def
/PP {closepath eofill} bdef
/DP {closepath stroke} bdef
/MR {4 -2 roll moveto dup  0 exch rlineto exch 0 rlineto
  neg 0 exch rlineto closepath} bdef
/FR {MR stroke} bdef
/PR {MR fill} bdef
/L1i {{currentfile picstr readhexstring pop} image} bdef
/tMatrix matrix def
/MakeOval {newpath tMatrix currentmatrix pop translate scale
0 0 1 0 360 arc tMatrix setmatrix} bdef
/FO {MakeOval stroke} bdef
/PO {MakeOval fill} bdef
/PD {currentlinewidth 2 div 0 360 arc fill
   PDlw -1 eq not {PDlw w /PDlw -1 def} if} def
/FA {newpath tMatrix currentmatrix pop translate scale
  0 0 1 5 -2 roll arc tMatrix setmatrix stroke} bdef
/PA {newpath tMatrix currentmatrix pop	translate 0 0 moveto scale
  0 0 1 5 -2 roll arc closepath tMatrix setmatrix fill} bdef
/FAn {newpath tMatrix currentmatrix pop translate scale
  0 0 1 5 -2 roll arcn tMatrix setmatrix stroke} bdef
/PAn {newpath tMatrix currentmatrix pop translate 0 0 moveto scale
  0 0 1 5 -2 roll arcn closepath tMatrix setmatrix fill} bdef
/vradius 0 def /hradius 0 def /lry 0 def
/lrx 0 def /uly 0 def /ulx 0 def /rad 0 def
/MRR {/vradius xdef /hradius xdef /lry xdef /lrx xdef /uly xdef
  /ulx xdef newpath tMatrix currentmatrix pop ulx hradius add uly
  vradius add translate hradius vradius scale 0 0 1 180 270 arc 
  tMatrix setmatrix lrx hradius sub uly vradius add translate
  hradius vradius scale 0 0 1 270 360 arc tMatrix setmatrix
  lrx hradius sub lry vradius sub translate hradius vradius scale
  0 0 1 0 90 arc tMatrix setmatrix ulx hradius add lry vradius sub
  translate hradius vradius scale 0 0 1 90 180 arc tMatrix setmatrix
  closepath} bdef
/FRR {MRR stroke } bdef
/PRR {MRR fill } bdef
/MlrRR {/lry xdef /lrx xdef /uly xdef /ulx xdef /rad lry uly sub 2 div def
  newpath tMatrix currentmatrix pop ulx rad add uly rad add translate
  rad rad scale 0 0 1 90 270 arc tMatrix setmatrix lrx rad sub lry rad
  sub translate rad rad scale 0 0 1 270 90 arc tMatrix setmatrix
  closepath} bdef
/FlrRR {MlrRR stroke } bdef
/PlrRR {MlrRR fill } bdef
/MtbRR {/lry xdef /lrx xdef /uly xdef /ulx xdef /rad lrx ulx sub 2 div def
  newpath tMatrix currentmatrix pop ulx rad add uly rad add translate
  rad rad scale 0 0 1 180 360 arc tMatrix setmatrix lrx rad sub lry rad
  sub translate rad rad scale 0 0 1 0 180 arc tMatrix setmatrix
  closepath} bdef
/FtbRR {MtbRR stroke } bdef
/PtbRR {MtbRR fill } bdef
/stri 6 array def /dtri 6 array def
/smat 6 array def /dmat 6 array def
/tmat1 6 array def /tmat2 6 array def /dif 3 array def
/asub {/ind2 exch def /ind1 exch def dup dup
  ind1 get exch ind2 get sub exch } bdef
/tri_to_matrix {
  2 0 asub 3 1 asub 4 0 asub 5 1 asub
  dup 0 get exch 1 get 7 -1 roll astore } bdef
/compute_transform {
  dmat dtri tri_to_matrix tmat1 invertmatrix 
  smat stri tri_to_matrix tmat2 concatmatrix } bdef
/ds {stri astore pop} bdef
/dt {dtri astore pop} bdef
/db {2 copy /cols xdef /rows xdef mul dup 3 mul string
  currentfile 
  3 index 0 eq {/ASCIIHexDecode filter}
  {/ASCII85Decode filter 3 index 2 eq {/RunLengthDecode filter} if }
  ifelse exch readstring pop
  dup 0 3 index getinterval /rbmap xdef
  dup 2 index dup getinterval /gbmap xdef
  1 index dup 2 mul exch getinterval /bbmap xdef pop pop}bdef
/it {gs np dtri aload pop moveto lineto lineto cp c
  cols rows 8 compute_transform 
  rbmap gbmap bbmap true 3 colorimage gr}bdef
/il {newpath moveto lineto stroke}bdef
currentdict end def
%%EndProlog

%%BeginSetup
MathWorks begin

0 cap

end
%%EndSetup

%%Page: 1 1
%%BeginPageSetup
%%PageBoundingBox:  -422    74  1019   766
MathWorks begin
bpage
%%EndPageSetup

%%BeginObject: obj1
bplot

/dpi2point 12 def
portraitMode -5064 9192 csm

    0     0 17294  8293 rc
89 dict begin %Colortable dictionary
/c0 { 0.000000 0.000000 0.000000 sr} bdef
/c1 { 1.000000 1.000000 1.000000 sr} bdef
/c2 { 0.900000 0.000000 0.000000 sr} bdef
/c3 { 0.000000 0.820000 0.000000 sr} bdef
/c4 { 0.000000 0.000000 0.800000 sr} bdef
/c5 { 0.910000 0.820000 0.320000 sr} bdef
/c6 { 1.000000 0.260000 0.820000 sr} bdef
/c7 { 0.000000 0.820000 0.820000 sr} bdef
c0
1 j
1 sg
   0    0 17295 8294 rf
6 w
0 3109 5880 0 0 -3109 7955 3607 4 MP
PP
-5880 0 0 3109 5880 0 0 -3109 7955 3607 5 MP stroke
4 w
DO
0 sg
7955 3607 mt 7955  498 L
7955  498 mt 7955  498 L
8795 3607 mt 8795  498 L
8795  498 mt 8795  498 L
9635 3607 mt 9635  498 L
9635  498 mt 9635  498 L
10475 3607 mt 10475  498 L
10475  498 mt 10475  498 L
11315 3607 mt 11315  498 L
11315  498 mt 11315  498 L
12155 3607 mt 12155  498 L
12155  498 mt 12155  498 L
12995 3607 mt 12995  498 L
12995  498 mt 12995  498 L
13835 3607 mt 13835  498 L
13835  498 mt 13835  498 L
7955 3607 mt 13835 3607 L
13835 3607 mt 13835 3607 L
7955 2829 mt 13835 2829 L
13835 2829 mt 13835 2829 L
7955 2052 mt 13835 2052 L
13835 2052 mt 13835 2052 L
7955 1275 mt 13835 1275 L
13835 1275 mt 13835 1275 L
7955  498 mt 13835  498 L
13835  498 mt 13835  498 L
SO
6 w
7955  498 mt 13835  498 L
7955 3607 mt 13835 3607 L
13835 3607 mt 13835  498 L
7955 3607 mt 7955  498 L
7955 3607 mt 13835 3607 L
7955 3607 mt 7955  498 L
7955 3607 mt 7955 3548 L
7955  498 mt 7955  556 L
%%IncludeResource: font Helvetica
/Helvetica /WindowsLatin1Encoding 216 FMSR

7835 3842 mt 
(10) s
8795 3607 mt 8795 3548 L
8795  498 mt 8795  556 L
8675 3842 mt 
(20) s
9635 3607 mt 9635 3548 L
9635  498 mt 9635  556 L
9515 3842 mt 
(30) s
10475 3607 mt 10475 3548 L
10475  498 mt 10475  556 L
10355 3842 mt 
(40) s
11315 3607 mt 11315 3548 L
11315  498 mt 11315  556 L
11195 3842 mt 
(50) s
12155 3607 mt 12155 3548 L
12155  498 mt 12155  556 L
12035 3842 mt 
(60) s
12995 3607 mt 12995 3548 L
12995  498 mt 12995  556 L
12875 3842 mt 
(70) s
13835 3607 mt 13835 3548 L
13835  498 mt 13835  556 L
13715 3842 mt 
(80) s
7955 3607 mt 8013 3607 L
13835 3607 mt 13776 3607 L
7800 3687 mt 
(0) s
7955 2829 mt 8013 2829 L
13835 2829 mt 13776 2829 L
7620 2909 mt 
(0.2) s
7955 2052 mt 8013 2052 L
13835 2052 mt 13776 2052 L
7620 2132 mt 
(0.4) s
7955 1275 mt 8013 1275 L
13835 1275 mt 13776 1275 L
7620 1355 mt 
(0.6) s
7955  498 mt 8013  498 L
13835  498 mt 13776  498 L
7620  578 mt 
(0.8) s
7955  498 mt 13835  498 L
7955 3607 mt 13835 3607 L
13835 3607 mt 13835  498 L
7955 3607 mt 7955  498 L
gs 7955 498 5881 3110 rc
24 w
/c8 { 0.000000 0.000000 1.000000 sr} bdef
c8
840 923 840 -2065 840 810 840 -795 840 -22 840 7 840 -12 7955 3606 8 MP stroke
gr

24 w
c8
gs 7749 1323 6293 2490 rc
0 j
0 -142 -142 0 0 142 142 0 7884 3535 5 MP
DP
0 -142 -142 0 0 142 142 0 8724 3523 5 MP
DP
0 -142 -142 0 0 142 142 0 9564 3530 5 MP
DP
0 -142 -142 0 0 142 142 0 10404 3508 5 MP
DP
0 -142 -142 0 0 142 142 0 11244 2713 5 MP
DP
0 -142 -142 0 0 142 142 0 12084 3523 5 MP
DP
0 -142 -142 0 0 142 142 0 12924 1458 5 MP
DP
0 -142 -142 0 0 142 142 0 13764 2381 5 MP
DP
gr

gs 7955 498 5881 3110 rc
gr

0 sg
%%IncludeResource: font Helvetica
/Helvetica /WindowsLatin1Encoding 240 FMSR

9622  321 mt 
(Wilcoxon rank-sum test) s
gs 7955 498 5881 3110 rc
DO
/c9 { 1.000000 0.000000 0.000000 sr} bdef
c9
840 123 840 -208 840 2539 840 -2761 840 -134 840 0 840 0 7955 3606 8 MP stroke
gr

c9
DO
gs 7749 505 6293 3308 rc
SO
  90   90 7955 3606 FO
  90   90 8795 3606 FO
  90   90 9635 3606 FO
  90   90 10475 3472 FO
  90   90 11315  711 FO
  90   90 12155 3250 FO
  90   90 12995 3042 FO
  90   90 13835 3165 FO
DO
gr

gs 7955 498 5881 3110 rc
DD
/c10 { 0.000000 1.000000 0.000000 sr} bdef
c10
840 -1386 840 -108 840 -8 840 68 840 -69 840 7 840 -7 7955 3606 8 MP stroke
gr

c10
DD
gs 7749 1897 6293 1916 rc
SO
0 j
104 179 -208 0 104 -179 7955 3725 4 MP
DP
104 179 -208 0 104 -179 8795 3718 4 MP
DP
104 179 -208 0 104 -179 9635 3725 4 MP
DP
104 179 -208 0 104 -179 10475 3656 4 MP
DP
104 179 -208 0 104 -179 11315 3724 4 MP
DP
104 179 -208 0 104 -179 12155 3716 4 MP
DP
104 179 -208 0 104 -179 12995 3608 4 MP
DP
104 179 -208 0 104 -179 13835 2222 4 MP
DP
DD
gr

gs 7955 498 5881 3110 rc
DA
/c11 { 0.000000 0.000000 0.172414 sr} bdef
c11
840 -2240 840 1066 840 -1378 840 -2 840 6 840 -6 840 0 7955 3606 8 MP stroke
gr

c11
DA
gs 7749 846 6293 2967 rc
SO
7892 3543 mt 8018 3669 L
8018 3543 mt 7892 3669 L
8732 3543 mt 8858 3669 L
8858 3543 mt 8732 3669 L
9572 3537 mt 9698 3663 L
9698 3537 mt 9572 3663 L
10412 3543 mt 10538 3669 L
10538 3543 mt 10412 3669 L
11252 3541 mt 11378 3667 L
11378 3541 mt 11252 3667 L
12092 2163 mt 12218 2289 L
12218 2163 mt 12092 2289 L
12932 3229 mt 13058 3355 L
13058 3229 mt 12932 3355 L
13772  989 mt 13898 1115 L
13898  989 mt 13772 1115 L
DA
gr

gs 7955 498 5881 3110 rc
SO
/c12 { 1.000000 0.103448 0.724138 sr} bdef
c12
840 -1411 840 -502 840 -158 840 -4 840 0 840 0 840 0 7955 3606 8 MP stroke
gr

c12
SO
gs 7749 1325 6293 2488 rc
0 j
90 119 -90 119 -90 -119 90 -119 7955 3725 5 MP
DP
90 119 -90 119 -90 -119 90 -119 8795 3725 5 MP
DP
90 119 -90 119 -90 -119 90 -119 9635 3725 5 MP
DP
90 119 -90 119 -90 -119 90 -119 10475 3725 5 MP
DP
90 119 -90 119 -90 -119 90 -119 11315 3721 5 MP
DP
90 119 -90 119 -90 -119 90 -119 12155 3563 5 MP
DP
90 119 -90 119 -90 -119 90 -119 12995 3061 5 MP
DP
90 119 -90 119 -90 -119 90 -119 13835 1650 5 MP
DP
gr

gs 7955 498 5881 3110 rc
DO
/c13 { 0.000000 0.344828 0.000000 sr} bdef
c13
840 -924 840 -321 840 1 840 -1 840 0 840 0 840 0 7955 3606 8 MP stroke
gr

c13
DO
gs 7749 2155 6293 1658 rc
SO
7865 3606 mt 8045 3606 L
7955 3516 mt 7955 3696 L
8705 3606 mt 8885 3606 L
8795 3516 mt 8795 3696 L
9545 3606 mt 9725 3606 L
9635 3516 mt 9635 3696 L
10385 3606 mt 10565 3606 L
10475 3516 mt 10475 3696 L
11225 3605 mt 11405 3605 L
11315 3515 mt 11315 3695 L
12065 3606 mt 12245 3606 L
12155 3516 mt 12155 3696 L
12905 3285 mt 13085 3285 L
12995 3195 mt 12995 3375 L
13745 2361 mt 13925 2361 L
13835 2271 mt 13835 2451 L
7892 3543 mt 8018 3669 L
8018 3543 mt 7892 3669 L
8732 3543 mt 8858 3669 L
8858 3543 mt 8732 3669 L
9572 3543 mt 9698 3669 L
9698 3543 mt 9572 3669 L
10412 3543 mt 10538 3669 L
10538 3543 mt 10412 3669 L
11252 3542 mt 11378 3668 L
11378 3542 mt 11252 3668 L
12092 3543 mt 12218 3669 L
12218 3543 mt 12092 3669 L
12932 3222 mt 13058 3348 L
13058 3222 mt 12932 3348 L
13772 2298 mt 13898 2424 L
13898 2298 mt 13772 2424 L
DO
gr

gs 7955 498 5881 3110 rc
SO
6 w
gr

6 w
SO
1 sg
0 3110 5880 0 0 -3110 7955 7464 4 MP
PP
-5880 0 0 3110 5880 0 0 -3110 7955 7464 5 MP stroke
4 w
DO
0 sg
7955 7464 mt 7955 4354 L
7955 4354 mt 7955 4354 L
8795 7464 mt 8795 4354 L
8795 4354 mt 8795 4354 L
9635 7464 mt 9635 4354 L
9635 4354 mt 9635 4354 L
10475 7464 mt 10475 4354 L
10475 4354 mt 10475 4354 L
11315 7464 mt 11315 4354 L
11315 4354 mt 11315 4354 L
12155 7464 mt 12155 4354 L
12155 4354 mt 12155 4354 L
12995 7464 mt 12995 4354 L
12995 4354 mt 12995 4354 L
13835 7464 mt 13835 4354 L
13835 4354 mt 13835 4354 L
7955 7464 mt 13835 7464 L
13835 7464 mt 13835 7464 L
7955 6686 mt 13835 6686 L
13835 6686 mt 13835 6686 L
7955 5909 mt 13835 5909 L
13835 5909 mt 13835 5909 L
7955 5131 mt 13835 5131 L
13835 5131 mt 13835 5131 L
7955 4354 mt 13835 4354 L
13835 4354 mt 13835 4354 L
SO
6 w
7955 4354 mt 13835 4354 L
7955 7464 mt 13835 7464 L
13835 7464 mt 13835 4354 L
7955 7464 mt 7955 4354 L
7955 7464 mt 13835 7464 L
7955 7464 mt 7955 4354 L
7955 7464 mt 7955 7405 L
7955 4354 mt 7955 4412 L
%%IncludeResource: font Helvetica
/Helvetica /WindowsLatin1Encoding 216 FMSR

7835 7699 mt 
(10) s
8795 7464 mt 8795 7405 L
8795 4354 mt 8795 4412 L
8675 7699 mt 
(20) s
9635 7464 mt 9635 7405 L
9635 4354 mt 9635 4412 L
9515 7699 mt 
(30) s
10475 7464 mt 10475 7405 L
10475 4354 mt 10475 4412 L
10355 7699 mt 
(40) s
11315 7464 mt 11315 7405 L
11315 4354 mt 11315 4412 L
11195 7699 mt 
(50) s
12155 7464 mt 12155 7405 L
12155 4354 mt 12155 4412 L
12035 7699 mt 
(60) s
12995 7464 mt 12995 7405 L
12995 4354 mt 12995 4412 L
12875 7699 mt 
(70) s
13835 7464 mt 13835 7405 L
13835 4354 mt 13835 4412 L
13715 7699 mt 
(80) s
7955 7464 mt 8013 7464 L
13835 7464 mt 13776 7464 L
7800 7544 mt 
(0) s
7955 6686 mt 8013 6686 L
13835 6686 mt 13776 6686 L
7620 6766 mt 
(0.1) s
7955 5909 mt 8013 5909 L
13835 5909 mt 13776 5909 L
7620 5989 mt 
(0.2) s
7955 5131 mt 8013 5131 L
13835 5131 mt 13776 5131 L
7620 5211 mt 
(0.3) s
7955 4354 mt 8013 4354 L
13835 4354 mt 13776 4354 L
7620 4434 mt 
(0.4) s
7955 4354 mt 13835 4354 L
7955 7464 mt 13835 7464 L
13835 7464 mt 13835 4354 L
7955 7464 mt 7955 4354 L
gs 7955 4354 5881 3111 rc
24 w
c8
840 0 840 0 840 0 840 0 840 0 840 2436 840 -2436 7955 7463 8 MP stroke
gr

24 w
c8
gs 7749 4821 6293 2849 rc
0 j
0 -142 -142 0 0 142 142 0 7884 7392 5 MP
DP
0 -142 -142 0 0 142 142 0 8724 4956 5 MP
DP
0 -142 -142 0 0 142 142 0 9564 7392 5 MP
DP
0 -142 -142 0 0 142 142 0 10404 7392 5 MP
DP
0 -142 -142 0 0 142 142 0 11244 7392 5 MP
DP
0 -142 -142 0 0 142 142 0 12084 7392 5 MP
DP
0 -142 -142 0 0 142 142 0 12924 7392 5 MP
DP
0 -142 -142 0 0 142 142 0 13764 7392 5 MP
DP
gr

gs 7955 4354 5881 3111 rc
gr

0 sg
%%IncludeResource: font Helvetica
/Helvetica /WindowsLatin1Encoding 240 FMSR

9622 4177 mt 
(Wilcoxon rank-sum test) s
9666 7930 mt 
(Elements swapped \(%\)) s
gs 7955 4354 5881 3111 rc
DO
c9
840 0 840 0 840 0 840 0 840 0 840 0 840 0 7955 7463 8 MP stroke
gr

c9
DO
gs 7749 7257 6293 413 rc
SO
  90   90 7955 7463 FO
  90   90 8795 7463 FO
  90   90 9635 7463 FO
  90   90 10475 7463 FO
  90   90 11315 7463 FO
  90   90 12155 7463 FO
  90   90 12995 7463 FO
  90   90 13835 7463 FO
DO
gr

gs 7955 4354 5881 3111 rc
DD
c10
840 0 840 0 840 0 840 0 840 0 840 0 840 0 7955 7463 8 MP stroke
gr

c10
DD
gs 7749 7257 6293 413 rc
SO
0 j
104 179 -208 0 104 -179 7955 7582 4 MP
DP
104 179 -208 0 104 -179 8795 7582 4 MP
DP
104 179 -208 0 104 -179 9635 7582 4 MP
DP
104 179 -208 0 104 -179 10475 7582 4 MP
DP
104 179 -208 0 104 -179 11315 7582 4 MP
DP
104 179 -208 0 104 -179 12155 7582 4 MP
DP
104 179 -208 0 104 -179 12995 7582 4 MP
DP
104 179 -208 0 104 -179 13835 7582 4 MP
DP
DD
gr

gs 7955 4354 5881 3111 rc
DA
c11
840 0 840 0 840 0 840 0 840 0 840 0 840 0 7955 7463 8 MP stroke
gr

c11
DA
gs 7749 7257 6293 413 rc
SO
7892 7400 mt 8018 7526 L
8018 7400 mt 7892 7526 L
8732 7400 mt 8858 7526 L
8858 7400 mt 8732 7526 L
9572 7400 mt 9698 7526 L
9698 7400 mt 9572 7526 L
10412 7400 mt 10538 7526 L
10538 7400 mt 10412 7526 L
11252 7400 mt 11378 7526 L
11378 7400 mt 11252 7526 L
12092 7400 mt 12218 7526 L
12218 7400 mt 12092 7526 L
12932 7400 mt 13058 7526 L
13058 7400 mt 12932 7526 L
13772 7400 mt 13898 7526 L
13898 7400 mt 13772 7526 L
DA
gr

gs 7955 4354 5881 3111 rc
SO
c12
840 0 840 0 840 0 840 0 840 0 840 0 840 3 7955 7460 8 MP stroke
gr

c12
SO
gs 7749 7254 6293 416 rc
0 j
90 119 -90 119 -90 -119 90 -119 7955 7579 5 MP
DP
90 119 -90 119 -90 -119 90 -119 8795 7582 5 MP
DP
90 119 -90 119 -90 -119 90 -119 9635 7582 5 MP
DP
90 119 -90 119 -90 -119 90 -119 10475 7582 5 MP
DP
90 119 -90 119 -90 -119 90 -119 11315 7582 5 MP
DP
90 119 -90 119 -90 -119 90 -119 12155 7582 5 MP
DP
90 119 -90 119 -90 -119 90 -119 12995 7582 5 MP
DP
90 119 -90 119 -90 -119 90 -119 13835 7582 5 MP
DP
gr

gs 7955 4354 5881 3111 rc
DO
c13
840 0 840 0 840 0 840 0 840 0 840 0 840 941 7955 6522 8 MP stroke
gr

c13
DO
gs 7749 6316 6293 1354 rc
SO
7865 6522 mt 8045 6522 L
7955 6432 mt 7955 6612 L
8705 7463 mt 8885 7463 L
8795 7373 mt 8795 7553 L
9545 7463 mt 9725 7463 L
9635 7373 mt 9635 7553 L
10385 7463 mt 10565 7463 L
10475 7373 mt 10475 7553 L
11225 7463 mt 11405 7463 L
11315 7373 mt 11315 7553 L
12065 7463 mt 12245 7463 L
12155 7373 mt 12155 7553 L
12905 7463 mt 13085 7463 L
12995 7373 mt 12995 7553 L
13745 7463 mt 13925 7463 L
13835 7373 mt 13835 7553 L
7892 6459 mt 8018 6585 L
8018 6459 mt 7892 6585 L
8732 7400 mt 8858 7526 L
8858 7400 mt 8732 7526 L
9572 7400 mt 9698 7526 L
9698 7400 mt 9572 7526 L
10412 7400 mt 10538 7526 L
10538 7400 mt 10412 7526 L
11252 7400 mt 11378 7526 L
11378 7400 mt 11252 7526 L
12092 7400 mt 12218 7526 L
12218 7400 mt 12092 7526 L
12932 7400 mt 13058 7526 L
13058 7400 mt 12932 7526 L
13772 7400 mt 13898 7526 L
13898 7400 mt 13772 7526 L
DO
gr

gs 7955 4354 5881 3111 rc
SO
6 w
gr

6 w
SO
1 sg
0 3109 5880 0 0 -3109 1038 3607 4 MP
PP
-5880 0 0 3109 5880 0 0 -3109 1038 3607 5 MP stroke
4 w
DO
0 sg
1038 3607 mt 1038  498 L
1038  498 mt 1038  498 L
1878 3607 mt 1878  498 L
1878  498 mt 1878  498 L
2718 3607 mt 2718  498 L
2718  498 mt 2718  498 L
3558 3607 mt 3558  498 L
3558  498 mt 3558  498 L
4398 3607 mt 4398  498 L
4398  498 mt 4398  498 L
5238 3607 mt 5238  498 L
5238  498 mt 5238  498 L
6078 3607 mt 6078  498 L
6078  498 mt 6078  498 L
6918 3607 mt 6918  498 L
6918  498 mt 6918  498 L
1038 3607 mt 6918 3607 L
6918 3607 mt 6918 3607 L
1038 2829 mt 6918 2829 L
6918 2829 mt 6918 2829 L
1038 2052 mt 6918 2052 L
6918 2052 mt 6918 2052 L
1038 1275 mt 6918 1275 L
6918 1275 mt 6918 1275 L
1038  498 mt 6918  498 L
6918  498 mt 6918  498 L
SO
6 w
1038  498 mt 6918  498 L
1038 3607 mt 6918 3607 L
6918 3607 mt 6918  498 L
1038 3607 mt 1038  498 L
1038 3607 mt 6918 3607 L
1038 3607 mt 1038  498 L
1038 3607 mt 1038 3548 L
1038  498 mt 1038  556 L
%%IncludeResource: font Helvetica
/Helvetica /WindowsLatin1Encoding 216 FMSR

 918 3842 mt 
(10) s
1878 3607 mt 1878 3548 L
1878  498 mt 1878  556 L
1758 3842 mt 
(20) s
2718 3607 mt 2718 3548 L
2718  498 mt 2718  556 L
2598 3842 mt 
(30) s
3558 3607 mt 3558 3548 L
3558  498 mt 3558  556 L
3438 3842 mt 
(40) s
4398 3607 mt 4398 3548 L
4398  498 mt 4398  556 L
4278 3842 mt 
(50) s
5238 3607 mt 5238 3548 L
5238  498 mt 5238  556 L
5118 3842 mt 
(60) s
6078 3607 mt 6078 3548 L
6078  498 mt 6078  556 L
5958 3842 mt 
(70) s
6918 3607 mt 6918 3548 L
6918  498 mt 6918  556 L
6798 3842 mt 
(80) s
1038 3607 mt 1096 3607 L
6918 3607 mt 6859 3607 L
 703 3687 mt 
(0.5) s
1038 2829 mt 1096 2829 L
6918 2829 mt 6859 2829 L
 883 2909 mt 
(1) s
1038 2052 mt 1096 2052 L
6918 2052 mt 6859 2052 L
 703 2132 mt 
(1.5) s
1038 1275 mt 1096 1275 L
6918 1275 mt 6859 1275 L
 883 1355 mt 
(2) s
1038  498 mt 1096  498 L
6918  498 mt 6859  498 L
 703  578 mt 
(2.5) s
1038  498 mt 6918  498 L
1038 3607 mt 6918 3607 L
6918 3607 mt 6918  498 L
1038 3607 mt 1038  498 L
gs 1038 498 5881 3110 rc
24 w
c8
840 -184 840 300 840 -151 840 147 840 112 840 -78 840 1057 1038 1499 8 MP stroke
gr

24 w
c8
gs 832 1293 6293 1800 rc
0 j
0 -142 -142 0 0 142 142 0 967 1428 5 MP
DP
0 -142 -142 0 0 142 142 0 1807 2485 5 MP
DP
0 -142 -142 0 0 142 142 0 2647 2407 5 MP
DP
0 -142 -142 0 0 142 142 0 3487 2519 5 MP
DP
0 -142 -142 0 0 142 142 0 4327 2666 5 MP
DP
0 -142 -142 0 0 142 142 0 5167 2515 5 MP
DP
0 -142 -142 0 0 142 142 0 6007 2815 5 MP
DP
0 -142 -142 0 0 142 142 0 6847 2631 5 MP
DP
gr

gs 1038 498 5881 3110 rc
gr

0 sg
%%IncludeResource: font Helvetica
/Helvetica /WindowsLatin1Encoding 240 FMSR

2204  212 mt 
(Time to reach feasible solution Q) s
%%IncludeResource: font Helvetica
/Helvetica /WindowsLatin1Encoding 192 FMSR

5700  332 mt 
(t) s
gs 1038 498 5881 3110 rc
DO
c9
840 -98 840 77 840 -265 840 292 840 561 840 -25 840 388 1038 1796 8 MP stroke
gr

c9
DO
gs 832 1590 6293 1629 rc
SO
  90   90 1038 1796 FO
  90   90 1878 2184 FO
  90   90 2718 2159 FO
  90   90 3558 2720 FO
  90   90 4398 3012 FO
  90   90 5238 2747 FO
  90   90 6078 2824 FO
  90   90 6918 2726 FO
DO
gr

gs 1038 498 5881 3110 rc
DD
c10
840 247 840 170 840 -86 840 -93 840 241 840 -188 840 953 1038 1625 8 MP stroke
gr

c10
DD
gs 832 1419 6293 1657 rc
SO
0 j
104 179 -208 0 104 -179 1038 1744 4 MP
DP
104 179 -208 0 104 -179 1878 2697 4 MP
DP
104 179 -208 0 104 -179 2718 2509 4 MP
DP
104 179 -208 0 104 -179 3558 2750 4 MP
DP
104 179 -208 0 104 -179 4398 2657 4 MP
DP
104 179 -208 0 104 -179 5238 2571 4 MP
DP
104 179 -208 0 104 -179 6078 2741 4 MP
DP
104 179 -208 0 104 -179 6918 2988 4 MP
DP
DD
gr

gs 1038 498 5881 3110 rc
DA
c11
840 -129 840 111 840 152 840 247 840 -231 840 371 840 914 1038 1252 8 MP stroke
gr

c11
DA
gs 832 1046 6293 1977 rc
SO
 975 1189 mt 1101 1315 L
1101 1189 mt  975 1315 L
1815 2103 mt 1941 2229 L
1941 2103 mt 1815 2229 L
2655 2474 mt 2781 2600 L
2781 2474 mt 2655 2600 L
3495 2243 mt 3621 2369 L
3621 2243 mt 3495 2369 L
4335 2490 mt 4461 2616 L
4461 2490 mt 4335 2616 L
5175 2642 mt 5301 2768 L
5301 2642 mt 5175 2768 L
6015 2753 mt 6141 2879 L
6141 2753 mt 6015 2879 L
6855 2624 mt 6981 2750 L
6981 2624 mt 6855 2750 L
DA
gr

gs 1038 498 5881 3110 rc
SO
c12
840 220 840 -222 840 198 840 124 840 -30 840 591 840 467 1038 1366 8 MP stroke
gr

c12
SO
gs 832 1160 6293 1763 rc
0 j
90 119 -90 119 -90 -119 90 -119 1038 1485 5 MP
DP
90 119 -90 119 -90 -119 90 -119 1878 1952 5 MP
DP
90 119 -90 119 -90 -119 90 -119 2718 2543 5 MP
DP
90 119 -90 119 -90 -119 90 -119 3558 2513 5 MP
DP
90 119 -90 119 -90 -119 90 -119 4398 2637 5 MP
DP
90 119 -90 119 -90 -119 90 -119 5238 2835 5 MP
DP
90 119 -90 119 -90 -119 90 -119 6078 2613 5 MP
DP
90 119 -90 119 -90 -119 90 -119 6918 2833 5 MP
DP
gr

gs 1038 498 5881 3110 rc
DO
c13
840 358 840 77 840 -30 840 187 840 -74 840 414 840 955 1038 942 8 MP stroke
gr

c13
DO
gs 832 736 6293 2300 rc
SO
 948  942 mt 1128  942 L
1038  852 mt 1038 1032 L
1788 1897 mt 1968 1897 L
1878 1807 mt 1878 1987 L
2628 2311 mt 2808 2311 L
2718 2221 mt 2718 2401 L
3468 2237 mt 3648 2237 L
3558 2147 mt 3558 2327 L
4308 2424 mt 4488 2424 L
4398 2334 mt 4398 2514 L
5148 2394 mt 5328 2394 L
5238 2304 mt 5238 2484 L
5988 2471 mt 6168 2471 L
6078 2381 mt 6078 2561 L
6828 2829 mt 7008 2829 L
6918 2739 mt 6918 2919 L
 975  879 mt 1101 1005 L
1101  879 mt  975 1005 L
1815 1834 mt 1941 1960 L
1941 1834 mt 1815 1960 L
2655 2248 mt 2781 2374 L
2781 2248 mt 2655 2374 L
3495 2174 mt 3621 2300 L
3621 2174 mt 3495 2300 L
4335 2361 mt 4461 2487 L
4461 2361 mt 4335 2487 L
5175 2331 mt 5301 2457 L
5301 2331 mt 5175 2457 L
6015 2408 mt 6141 2534 L
6141 2408 mt 6015 2534 L
6855 2766 mt 6981 2892 L
6981 2766 mt 6855 2892 L
DO
gr

gs 1038 498 5881 3110 rc
SO
6 w
gr

6 w
SO
1 sg
0 3110 5880 0 0 -3110 1038 7464 4 MP
PP
-5880 0 0 3110 5880 0 0 -3110 1038 7464 5 MP stroke
4 w
DO
0 sg
1038 7464 mt 1038 4354 L
1038 4354 mt 1038 4354 L
1878 7464 mt 1878 4354 L
1878 4354 mt 1878 4354 L
2718 7464 mt 2718 4354 L
2718 4354 mt 2718 4354 L
3558 7464 mt 3558 4354 L
3558 4354 mt 3558 4354 L
4398 7464 mt 4398 4354 L
4398 4354 mt 4398 4354 L
5238 7464 mt 5238 4354 L
5238 4354 mt 5238 4354 L
6078 7464 mt 6078 4354 L
6078 4354 mt 6078 4354 L
6918 7464 mt 6918 4354 L
6918 4354 mt 6918 4354 L
1038 7075 mt 6918 7075 L
6918 7075 mt 6918 7075 L
1038 6686 mt 6918 6686 L
6918 6686 mt 6918 6686 L
1038 6297 mt 6918 6297 L
6918 6297 mt 6918 6297 L
1038 5909 mt 6918 5909 L
6918 5909 mt 6918 5909 L
1038 5520 mt 6918 5520 L
6918 5520 mt 6918 5520 L
1038 5131 mt 6918 5131 L
6918 5131 mt 6918 5131 L
1038 4742 mt 6918 4742 L
6918 4742 mt 6918 4742 L
SO
6 w
1038 4354 mt 6918 4354 L
1038 7464 mt 6918 7464 L
6918 7464 mt 6918 4354 L
1038 7464 mt 1038 4354 L
1038 7464 mt 6918 7464 L
1038 7464 mt 1038 4354 L
1038 7464 mt 1038 7405 L
1038 4354 mt 1038 4412 L
%%IncludeResource: font Helvetica
/Helvetica /WindowsLatin1Encoding 216 FMSR

 918 7699 mt 
(10) s
1878 7464 mt 1878 7405 L
1878 4354 mt 1878 4412 L
1758 7699 mt 
(20) s
2718 7464 mt 2718 7405 L
2718 4354 mt 2718 4412 L
2598 7699 mt 
(30) s
3558 7464 mt 3558 7405 L
3558 4354 mt 3558 4412 L
3438 7699 mt 
(40) s
4398 7464 mt 4398 7405 L
4398 4354 mt 4398 4412 L
4278 7699 mt 
(50) s
5238 7464 mt 5238 7405 L
5238 4354 mt 5238 4412 L
5118 7699 mt 
(60) s
6078 7464 mt 6078 7405 L
6078 4354 mt 6078 4412 L
5958 7699 mt 
(70) s
6918 7464 mt 6918 7405 L
6918 4354 mt 6918 4412 L
6798 7699 mt 
(80) s
1038 7075 mt 1096 7075 L
6918 7075 mt 6859 7075 L
 703 7155 mt 
(0.7) s
1038 6686 mt 1096 6686 L
6918 6686 mt 6859 6686 L
 703 6766 mt 
(0.8) s
1038 6297 mt 1096 6297 L
6918 6297 mt 6859 6297 L
 703 6377 mt 
(0.9) s
1038 5909 mt 1096 5909 L
6918 5909 mt 6859 5909 L
 883 5989 mt 
(1) s
1038 5520 mt 1096 5520 L
6918 5520 mt 6859 5520 L
 703 5600 mt 
(1.1) s
1038 5131 mt 1096 5131 L
6918 5131 mt 6859 5131 L
 703 5211 mt 
(1.2) s
1038 4742 mt 1096 4742 L
6918 4742 mt 6859 4742 L
 703 4822 mt 
(1.3) s
1038 4354 mt 6918 4354 L
1038 7464 mt 6918 7464 L
6918 7464 mt 6918 4354 L
1038 7464 mt 1038 4354 L
gs 1038 4354 5881 3111 rc
24 w
c8
840 58 840 -21 840 130 840 98 840 142 840 298 840 414 1038 5462 8 MP stroke
gr

24 w
c8
gs 832 5256 6293 1532 rc
0 j
0 -142 -142 0 0 142 142 0 967 5391 5 MP
DP
0 -142 -142 0 0 142 142 0 1807 5805 5 MP
DP
0 -142 -142 0 0 142 142 0 2647 6103 5 MP
DP
0 -142 -142 0 0 142 142 0 3487 6245 5 MP
DP
0 -142 -142 0 0 142 142 0 4327 6343 5 MP
DP
0 -142 -142 0 0 142 142 0 5167 6473 5 MP
DP
0 -142 -142 0 0 142 142 0 6007 6452 5 MP
DP
0 -142 -142 0 0 142 142 0 6847 6510 5 MP
DP
gr

gs 1038 4354 5881 3111 rc
gr

0 sg
%%IncludeResource: font Helvetica
/Helvetica /WindowsLatin1Encoding 240 FMSR

2720 4068 mt 
(Final solution quality Q) s
%%IncludeResource: font Helvetica
/Helvetica /WindowsLatin1Encoding 192 FMSR

5147 4188 mt 
(s) s
%%IncludeResource: font Helvetica
/Helvetica /WindowsLatin1Encoding 240 FMSR

2749 7930 mt 
(Elements swapped \(%\)) s
gs 1038 4354 5881 3111 rc
DO
c9
840 97 840 94 840 138 840 181 840 260 840 378 840 604 1038 5081 8 MP stroke
gr

c9
DO
gs 832 4875 6293 2165 rc
SO
  90   90 1038 5081 FO
  90   90 1878 5685 FO
  90   90 2718 6063 FO
  90   90 3558 6323 FO
  90   90 4398 6504 FO
  90   90 5238 6642 FO
  90   90 6078 6736 FO
  90   90 6918 6833 FO
DO
gr

gs 1038 4354 5881 3111 rc
DD
c10
840 78 840 118 840 17 840 130 840 218 840 312 840 500 1038 5573 8 MP stroke
gr

c10
DD
gs 832 5367 6293 1786 rc
SO
0 j
104 179 -208 0 104 -179 1038 5692 4 MP
DP
104 179 -208 0 104 -179 1878 6192 4 MP
DP
104 179 -208 0 104 -179 2718 6504 4 MP
DP
104 179 -208 0 104 -179 3558 6722 4 MP
DP
104 179 -208 0 104 -179 4398 6852 4 MP
DP
104 179 -208 0 104 -179 5238 6869 4 MP
DP
104 179 -208 0 104 -179 6078 6987 4 MP
DP
104 179 -208 0 104 -179 6918 7065 4 MP
DP
DD
gr

gs 1038 4354 5881 3111 rc
DA
c11
840 87 840 91 840 154 840 86 840 259 840 236 840 546 1038 5535 8 MP stroke
gr

c11
DA
gs 832 5329 6293 1872 rc
SO
 975 5472 mt 1101 5598 L
1101 5472 mt  975 5598 L
1815 6018 mt 1941 6144 L
1941 6018 mt 1815 6144 L
2655 6254 mt 2781 6380 L
2781 6254 mt 2655 6380 L
3495 6513 mt 3621 6639 L
3621 6513 mt 3495 6639 L
4335 6599 mt 4461 6725 L
4461 6599 mt 4335 6725 L
5175 6753 mt 5301 6879 L
5301 6753 mt 5175 6879 L
6015 6844 mt 6141 6970 L
6141 6844 mt 6015 6970 L
6855 6931 mt 6981 7057 L
6981 6931 mt 6855 7057 L
DA
gr

gs 1038 4354 5881 3111 rc
SO
c12
840 90 840 71 840 73 840 185 840 153 840 285 840 445 1038 5778 8 MP stroke
gr

c12
SO
gs 832 5572 6293 1715 rc
0 j
90 119 -90 119 -90 -119 90 -119 1038 5897 5 MP
DP
90 119 -90 119 -90 -119 90 -119 1878 6342 5 MP
DP
90 119 -90 119 -90 -119 90 -119 2718 6627 5 MP
DP
90 119 -90 119 -90 -119 90 -119 3558 6780 5 MP
DP
90 119 -90 119 -90 -119 90 -119 4398 6965 5 MP
DP
90 119 -90 119 -90 -119 90 -119 5238 7038 5 MP
DP
90 119 -90 119 -90 -119 90 -119 6078 7109 5 MP
DP
90 119 -90 119 -90 -119 90 -119 6918 7199 5 MP
DP
gr

gs 1038 4354 5881 3111 rc
DO
c13
840 106 840 56 840 43 840 107 840 190 840 268 840 345 1038 5968 8 MP stroke
gr

c13
DO
gs 832 5762 6293 1528 rc
SO
 948 5968 mt 1128 5968 L
1038 5878 mt 1038 6058 L
1788 6313 mt 1968 6313 L
1878 6223 mt 1878 6403 L
2628 6581 mt 2808 6581 L
2718 6491 mt 2718 6671 L
3468 6771 mt 3648 6771 L
3558 6681 mt 3558 6861 L
4308 6878 mt 4488 6878 L
4398 6788 mt 4398 6968 L
5148 6921 mt 5328 6921 L
5238 6831 mt 5238 7011 L
5988 6977 mt 6168 6977 L
6078 6887 mt 6078 7067 L
6828 7083 mt 7008 7083 L
6918 6993 mt 6918 7173 L
 975 5905 mt 1101 6031 L
1101 5905 mt  975 6031 L
1815 6250 mt 1941 6376 L
1941 6250 mt 1815 6376 L
2655 6518 mt 2781 6644 L
2781 6518 mt 2655 6644 L
3495 6708 mt 3621 6834 L
3621 6708 mt 3495 6834 L
4335 6815 mt 4461 6941 L
4461 6815 mt 4335 6941 L
5175 6858 mt 5301 6984 L
5301 6858 mt 5175 6984 L
6015 6914 mt 6141 7040 L
6141 6914 mt 6015 7040 L
6855 7020 mt 6981 7146 L
6981 7020 mt 6855 7146 L
DO
gr

gs 1038 4354 5881 3111 rc
gr

0 sg
%%IncludeResource: font Helvetica
/Helvetica /WindowsLatin1Encoding 120 FMSR

1021 7507 mt 
( ) s
6902 4396 mt 
( ) s
SO
6 w
1 sg
0 1644 1296 0 0 -1644 13992 2105 4 MP
PP
-1296 0 0 1644 1296 0 0 -1644 13992 2105 5 MP stroke
4 w
DO
SO
6 w
0 sg
13992  461 mt 15288  461 L
13992 2105 mt 15288 2105 L
15288 2105 mt 15288  461 L
13992 2105 mt 13992  461 L
13992 2105 mt 15288 2105 L
13992 2105 mt 13992  461 L
13992  461 mt 15288  461 L
13992 2105 mt 15288 2105 L
15288 2105 mt 15288  461 L
13992 2105 mt 13992  461 L
%%IncludeResource: font Helvetica
/Helvetica /WindowsLatin1Encoding 216 FMSR

14460  693 mt 
(scp41) s
gs 13992 461 1297 1645 rc
24 w
c8
360 0 14064 615 2 MP stroke
gr

24 w
c8
gs 14038 409 413 413 rc
0 j
0 -142 -142 0 0 142 142 0 14173 544 5 MP
DP
gr

gs 13992 461 1297 1645 rc
gr

0 sg
14460  960 mt 
(scp63) s
gs 13992 461 1297 1645 rc
DO
c9
360 0 14064 882 2 MP stroke
SO
gs 14038 676 413 413 rc
  90   90 14244  882 FO
gr

gr

c9
0 sg
14460 1227 mt 
(scpa5) s
gs 13992 461 1297 1645 rc
DD
c10
360 0 14064 1149 2 MP stroke
SO
gs 14038 943 413 413 rc
0 j
104 179 -208 0 104 -179 14244 1268 4 MP
DP
gr

gr

c10
0 sg
14460 1494 mt 
(scpb4) s
gs 13992 461 1297 1645 rc
DA
c11
360 0 14064 1416 2 MP stroke
SO
gs 14038 1210 413 413 rc
14181 1353 mt 14307 1479 L
14307 1353 mt 14181 1479 L
gr

gr

c11
0 sg
14460 1761 mt 
(scpd2) s
gs 13992 461 1297 1645 rc
c12
360 0 14064 1683 2 MP stroke
gs 14038 1477 413 413 rc
0 j
90 119 -90 119 -90 -119 90 -119 14244 1802 5 MP
DP
gr

gr

c12
0 sg
14460 2028 mt 
(scpnre1) s
gs 13992 461 1297 1645 rc
DO
c13
360 0 14064 1950 2 MP stroke
SO
gr

c13
gs 14038 1744 413 413 rc
14154 1950 mt 14334 1950 L
14244 1860 mt 14244 2040 L
14181 1887 mt 14307 2013 L
14307 1887 mt 14181 2013 L
gr

gs 13992 461 1297 1645 rc
6 w
gr

6 w

end %%Color Dict

eplot
%%EndObject

epage
end

showpage

%%Trailer
%%EOF
